<?xml version="1.0" encoding="UTF-8" standalone="no"?>
<!-- Created with Inkscape (http://www.inkscape.org/) -->

<svg
   xmlns:dc="http://purl.org/dc/elements/1.1/"
   xmlns:cc="http://creativecommons.org/ns#"
   xmlns:rdf="http://www.w3.org/1999/02/22-rdf-syntax-ns#"
   xmlns:svg="http://www.w3.org/2000/svg"
   xmlns="http://www.w3.org/2000/svg"
   xmlns:sodipodi="http://sodipodi.sourceforge.net/DTD/sodipodi-0.dtd"
   xmlns:inkscape="http://www.inkscape.org/namespaces/inkscape"
   width="111.20501mm"
   height="111.20501mm"
   viewBox="0 0 111.205 111.205"
   version="1.1"
   id="svg8"
   inkscape:version="0.92.2 5c3e80d, 2017-08-06"
   sodipodi:docname="c0dlstro.svg">
  <defs
     id="defs2">
    <inkscape:path-effect
       effect="bspline"
       id="path-effect1019"
       is_visible="true"
       weight="33.333333"
       steps="2"
       helper_size="0"
       apply_no_weight="true"
       apply_with_weight="true"
       only_selected="false" />
    <inkscape:path-effect
       effect="bspline"
       id="path-effect1015"
       is_visible="true"
       weight="33.333333"
       steps="2"
       helper_size="0"
       apply_no_weight="true"
       apply_with_weight="true"
       only_selected="false" />
    <inkscape:path-effect
       effect="bspline"
       id="path-effect1011"
       is_visible="true"
       weight="33.333333"
       steps="2"
       helper_size="0"
       apply_no_weight="true"
       apply_with_weight="true"
       only_selected="false" />
    <inkscape:path-effect
       effect="bspline"
       id="path-effect1007"
       is_visible="true"
       weight="33.333333"
       steps="2"
       helper_size="0"
       apply_no_weight="true"
       apply_with_weight="true"
       only_selected="false" />
    <inkscape:path-effect
       effect="bspline"
       id="path-effect1003"
       is_visible="true"
       weight="33.333333"
       steps="2"
       helper_size="0"
       apply_no_weight="true"
       apply_with_weight="true"
       only_selected="false" />
    <inkscape:path-effect
       effect="bspline"
       id="path-effect999"
       is_visible="true"
       weight="33.333333"
       steps="2"
       helper_size="0"
       apply_no_weight="true"
       apply_with_weight="true"
       only_selected="false" />
    <inkscape:path-effect
       effect="bspline"
       id="path-effect995"
       is_visible="true"
       weight="33.333333"
       steps="2"
       helper_size="0"
       apply_no_weight="true"
       apply_with_weight="true"
       only_selected="false" />
    <inkscape:path-effect
       effect="bspline"
       id="path-effect991"
       is_visible="true"
       weight="33.333333"
       steps="2"
       helper_size="0"
       apply_no_weight="true"
       apply_with_weight="true"
       only_selected="false" />
    <inkscape:path-effect
       effect="bspline"
       id="path-effect987"
       is_visible="true"
       weight="33.333333"
       steps="2"
       helper_size="0"
       apply_no_weight="true"
       apply_with_weight="true"
       only_selected="false" />
    <inkscape:path-effect
       effect="bspline"
       id="path-effect983"
       is_visible="true"
       weight="33.333333"
       steps="2"
       helper_size="0"
       apply_no_weight="true"
       apply_with_weight="true"
       only_selected="false" />
    <inkscape:path-effect
       effect="bspline"
       id="path-effect978"
       is_visible="true"
       weight="33.333333"
       steps="2"
       helper_size="0"
       apply_no_weight="true"
       apply_with_weight="true"
       only_selected="false" />
    <inkscape:path-effect
       effect="bspline"
       id="path-effect974"
       is_visible="true"
       weight="33.333333"
       steps="2"
       helper_size="0"
       apply_no_weight="true"
       apply_with_weight="true"
       only_selected="false" />
    <inkscape:path-effect
       effect="bspline"
       id="path-effect970"
       is_visible="true"
       weight="33.333333"
       steps="2"
       helper_size="0"
       apply_no_weight="true"
       apply_with_weight="true"
       only_selected="false" />
    <inkscape:path-effect
       effect="bspline"
       id="path-effect962"
       is_visible="true"
       weight="33.333333"
       steps="2"
       helper_size="0"
       apply_no_weight="true"
       apply_with_weight="true"
       only_selected="false" />
    <inkscape:path-effect
       effect="bspline"
       id="path-effect958"
       is_visible="true"
       weight="33.333333"
       steps="2"
       helper_size="0"
       apply_no_weight="true"
       apply_with_weight="true"
       only_selected="false" />
    <inkscape:path-effect
       effect="bspline"
       id="path-effect954"
       is_visible="true"
       weight="33.333333"
       steps="2"
       helper_size="0"
       apply_no_weight="true"
       apply_with_weight="true"
       only_selected="false" />
    <inkscape:path-effect
       effect="bspline"
       id="path-effect942"
       is_visible="true"
       weight="33.333333"
       steps="2"
       helper_size="0"
       apply_no_weight="true"
       apply_with_weight="true"
       only_selected="false" />
    <inkscape:path-effect
       effect="bspline"
       id="path-effect938"
       is_visible="true"
       weight="33.333333"
       steps="2"
       helper_size="0"
       apply_no_weight="true"
       apply_with_weight="true"
       only_selected="false" />
    <inkscape:path-effect
       effect="bspline"
       id="path-effect934"
       is_visible="true"
       weight="33.333333"
       steps="2"
       helper_size="0"
       apply_no_weight="true"
       apply_with_weight="true"
       only_selected="false" />
    <inkscape:path-effect
       effect="bspline"
       id="path-effect930"
       is_visible="true"
       weight="33.333333"
       steps="2"
       helper_size="0"
       apply_no_weight="true"
       apply_with_weight="true"
       only_selected="false" />
    <inkscape:path-effect
       effect="bspline"
       id="path-effect926"
       is_visible="true"
       weight="33.333333"
       steps="2"
       helper_size="0"
       apply_no_weight="true"
       apply_with_weight="true"
       only_selected="false" />
    <inkscape:path-effect
       effect="bspline"
       id="path-effect922"
       is_visible="true"
       weight="33.333333"
       steps="2"
       helper_size="0"
       apply_no_weight="true"
       apply_with_weight="true"
       only_selected="false" />
    <inkscape:path-effect
       effect="bspline"
       id="path-effect918"
       is_visible="true"
       weight="33.333333"
       steps="2"
       helper_size="0"
       apply_no_weight="true"
       apply_with_weight="true"
       only_selected="false" />
    <inkscape:path-effect
       effect="bspline"
       id="path-effect910"
       is_visible="true"
       weight="33.333333"
       steps="2"
       helper_size="0"
       apply_no_weight="true"
       apply_with_weight="true"
       only_selected="false" />
    <inkscape:path-effect
       effect="bspline"
       id="path-effect906"
       is_visible="true"
       weight="33.333333"
       steps="2"
       helper_size="0"
       apply_no_weight="true"
       apply_with_weight="true"
       only_selected="false" />
    <inkscape:path-effect
       effect="bspline"
       id="path-effect902"
       is_visible="true"
       weight="33.333333"
       steps="2"
       helper_size="0"
       apply_no_weight="true"
       apply_with_weight="true"
       only_selected="false" />
    <inkscape:path-effect
       effect="bspline"
       id="path-effect879"
       is_visible="true"
       weight="33.333333"
       steps="2"
       helper_size="0"
       apply_no_weight="true"
       apply_with_weight="true"
       only_selected="false" />
    <inkscape:path-effect
       effect="bspline"
       id="path-effect875"
       is_visible="true"
       weight="33.333333"
       steps="2"
       helper_size="0"
       apply_no_weight="true"
       apply_with_weight="true"
       only_selected="false" />
    <inkscape:path-effect
       effect="bspline"
       id="path-effect871"
       is_visible="true"
       weight="33.333333"
       steps="2"
       helper_size="0"
       apply_no_weight="true"
       apply_with_weight="true"
       only_selected="false" />
    <inkscape:path-effect
       effect="bspline"
       id="path-effect867"
       is_visible="true"
       weight="33.333333"
       steps="2"
       helper_size="0"
       apply_no_weight="true"
       apply_with_weight="true"
       only_selected="false" />
    <inkscape:path-effect
       effect="bspline"
       id="path-effect863"
       is_visible="true"
       weight="33.333333"
       steps="2"
       helper_size="0"
       apply_no_weight="true"
       apply_with_weight="true"
       only_selected="false" />
    <inkscape:path-effect
       effect="bspline"
       id="path-effect859"
       is_visible="true"
       weight="33.333333"
       steps="2"
       helper_size="0"
       apply_no_weight="true"
       apply_with_weight="true"
       only_selected="false" />
    <inkscape:path-effect
       effect="bspline"
       id="path-effect855"
       is_visible="true"
       weight="33.333333"
       steps="2"
       helper_size="0"
       apply_no_weight="true"
       apply_with_weight="true"
       only_selected="false" />
    <inkscape:path-effect
       effect="bspline"
       id="path-effect851"
       is_visible="true"
       weight="33.333333"
       steps="2"
       helper_size="0"
       apply_no_weight="true"
       apply_with_weight="true"
       only_selected="false" />
    <inkscape:path-effect
       effect="bspline"
       id="path-effect847"
       is_visible="true"
       weight="33.333333"
       steps="2"
       helper_size="0"
       apply_no_weight="true"
       apply_with_weight="true"
       only_selected="false" />
    <inkscape:path-effect
       effect="bspline"
       id="path-effect843"
       is_visible="true"
       weight="33.333333"
       steps="2"
       helper_size="0"
       apply_no_weight="true"
       apply_with_weight="true"
       only_selected="false" />
    <inkscape:path-effect
       effect="bspline"
       id="path-effect839"
       is_visible="true"
       weight="33.333333"
       steps="2"
       helper_size="0"
       apply_no_weight="true"
       apply_with_weight="true"
       only_selected="false" />
    <inkscape:path-effect
       effect="bspline"
       id="path-effect27"
       is_visible="true"
       weight="33.333333"
       steps="2"
       helper_size="0"
       apply_no_weight="true"
       apply_with_weight="true"
       only_selected="false" />
  </defs>
  <sodipodi:namedview
     id="base"
     pagecolor="#ffffff"
     bordercolor="#666666"
     borderopacity="1.0"
     inkscape:pageopacity="0.0"
     inkscape:pageshadow="2"
     inkscape:zoom="0.5"
     inkscape:cx="-68.857327"
     inkscape:cy="238.66609"
     inkscape:document-units="mm"
     inkscape:current-layer="layer1"
     showgrid="false"
     inkscape:snap-nodes="true"
     inkscape:window-width="1366"
     inkscape:window-height="711"
     inkscape:window-x="0"
     inkscape:window-y="0"
     inkscape:window-maximized="1"
     inkscape:pagecheckerboard="true"
     fit-margin-top="0"
     fit-margin-left="0"
     fit-margin-right="0"
     fit-margin-bottom="0" />
  <metadata
     id="metadata5">
    <rdf:RDF>
      <cc:Work
         rdf:about="">
        <dc:format>image/svg+xml</dc:format>
        <dc:type
           rdf:resource="http://purl.org/dc/dcmitype/StillImage" />
        <dc:title></dc:title>
      </cc:Work>
    </rdf:RDF>
  </metadata>
  <g
     inkscape:label="Layer 1"
     inkscape:groupmode="layer"
     id="layer1"
     transform="translate(-57.690092,-143.98021)">
    <g
       id="g1121">
      <path
         sodipodi:nodetypes="ccccccccc"
         inkscape:original-d="m 97.276371,285.7846 c -1.37305,-2.63244 -2.746362,-5.26462 -4.119941,-7.89654 0.877626,0.11417 1.755056,0.2286 2.632184,0.34332 4.271696,2.05918 8.545326,4.11967 12.817596,6.1799 0.22914,1.56374 0.45803,3.12786 0.68665,4.69215 -0.49572,-0.19103 -0.83898,-0.38174 -1.25887,-0.57221 -3.35768,-0.53446 -6.71371,-1.06839 -10.070962,-1.60219 -0.610137,-0.45807 -1.220459,-0.9158 -1.831086,-1.37332 0.381768,0.076 0.763217,0.15232 1.144429,0.22889 z"
         inkscape:path-effect="#path-effect1019"
         inkscape:connector-curvature="0"
         id="path1017"
         d="m 96.399052,284.43033 c -0.496045,-1.27801 -1.869358,-3.91019 -2.117196,-5.169 -0.247838,-1.2588 0.62959,-1.14436 3.203947,-0.0574 2.574357,1.08695 6.847987,3.14745 9.098617,4.95929 2.25063,1.81185 2.47953,3.37597 2.35258,4.04837 -0.12694,0.6724 -0.48327,0.51043 -2.372,0.14795 -1.88873,-0.36249 -5.24477,-0.8964 -7.22855,-1.39234 -1.983782,-0.49593 -2.594098,-0.95367 -2.708453,-1.1444 -0.114355,-0.19074 0.267099,-0.11445 -0.228945,-1.39246 z"
         style="fill:#5bcefa;fill-opacity:1;stroke:none;stroke-width:0.26458332px;stroke-linecap:butt;stroke-linejoin:miter;stroke-opacity:1" />
      <path
         sodipodi:nodetypes="cccccccccccccc"
         inkscape:original-d="m 170.4361,289.83208 c 0.80604,0.0611 1.61188,0.12249 2.41731,0.18412 -4.24002,-9.72796 -8.48109,-19.45749 -12.72203,-29.18584 -2.49422,-2.93128 -4.98877,-5.9871 -7.48355,-8.98025 -1.99533,-2.12059 -3.99096,-4.24095 -5.98684,-6.36102 -3.5544,-2.86894 -7.1091,-5.73765 -10.66405,-8.60608 -2.24482,0.18683 -4.48987,0.37392 -6.73519,0.56127 -14.03317,2.55694 -28.06304,5.11349 -42.094949,7.67063 -0.18683,0.2492 -0.37392,0.49864 -0.56127,0.74836 5.931782,10.67646 11.849209,21.32784 17.773419,31.99216 1.20497,3.1288 2.40962,6.25773 3.61408,9.3871 1.36238,1.35691 2.72443,2.71401 4.08626,4.07141 19.45259,-0.49422 38.90481,-0.98817 58.35681,-1.48186 2.6e-4,-2.6e-4 2.6e-4,-2.6e-4 0,0 z"
         inkscape:path-effect="#path-effect863"
         inkscape:connector-curvature="0"
         id="path861"
         d="m 170.83911,289.86278 c 0.40301,0.0307 1.20885,0.0921 -0.50859,-4.74117 -1.71744,-4.83323 -5.95852,-14.56276 -9.31075,-20.90531 -3.35223,-6.34254 -5.87745,-9.3728 -8.1225,-11.92966 -2.24505,-2.55686 -4.24068,-4.67722 -7.01579,-7.17171 -2.77512,-2.49449 -6.32982,-5.3632 -9.22958,-6.70403 -2.89976,-1.34082 -5.14481,-1.15373 -13.28405,0.2184 -8.13923,1.37213 -22.1691,3.92868 -29.278513,5.33173 -7.109411,1.40305 -7.296494,1.65249 -4.424418,7.11568 2.872076,5.4632 8.789507,16.11457 12.354091,23.01111 3.56459,6.89653 4.76924,10.02546 6.05269,12.26867 1.28345,2.24321 2.6455,3.60031 13.05284,4.0319 10.40735,0.43159 29.85957,-0.0624 39.58556,-0.30934 9.726,-0.24697 9.726,-0.24697 10.12901,-0.21627 z"
         style="fill:#a1d9f6;fill-opacity:1;stroke:#6eabdc;stroke-width:2;stroke-linecap:butt;stroke-linejoin:miter;stroke-miterlimit:4;stroke-dasharray:none;stroke-opacity:1" />
      <path
         sodipodi:nodetypes="cccccccccccccccccccccc"
         inkscape:original-d="m 82.12423,255.28163 c -2.821963,-2.11693 -5.644183,-4.2336 -8.466673,-6.35 -2.20463,-1.4114 -4.40946,-2.82249 -6.61458,-4.23334 -2.99844,-1.76421 -5.82057,-3.52804 -8.73125,-5.29166 -1.1463,0.52891 -2.11641,1.05807 -3.175,1.5875 0.26492,3.35212 0.52943,6.70251 0.79375,10.05416 1.32327,1.76375 2.64609,3.52752 3.96875,5.29167 4.1455,2.91022 8.46693,5.82057 12.7,8.73125 2.29329,0.79347 4.58637,1.58724 6.87916,2.38125 -2.02807,-0.26483 -4.05668,-0.70582 -6.08541,-1.05833 -4.23352,0.70536 -8.64279,1.41084 -12.96459,2.11666 0.35307,2.11655 0.70582,4.23307 1.05834,6.35 1.85253,1.5874 3.70443,3.17474 5.55625,4.7625 4.93909,0.79348 9.70165,1.58724 14.552083,2.38125 3.96884,-0.70579 7.937758,-1.41137 11.90625,-2.11666 -0.9698,0.96979 -1.940012,1.94001 -2.910422,2.91041 -1.41123,0.97014 -2.82196,1.94002 -4.233328,2.91042 0.2649,0.088 0.52943,-2.7e-4 0.79375,0 3.524508,0.17595 7.23221,0.35251 10.84792,0.52917 -0.35249,-0.35302 -0.7053,-0.70582 -1.05834,-1.05834 -0.5289,-1.14679 -1.05807,-2.29332 -1.5875,-3.43958 -4.409002,-8.81881 -8.81918,-17.63915 -13.22916,-26.45833 z"
         inkscape:path-effect="#path-effect843"
         inkscape:connector-curvature="0"
         id="path841"
         d="m 82.917972,258.63298 c -3.615925,-5.46799 -6.438149,-7.58465 -8.951695,-9.34855 -2.513547,-1.76389 -4.718375,-3.17499 -7.308306,-4.78206 -2.589931,-1.60707 -5.435753,-3.33181 -7.4553,-3.93162 -2.019548,-0.59982 -3.0073,-0.10594 -3.404301,1.83479 -0.397,1.94073 -0.132495,5.29112 0.661294,7.84892 0.79379,2.5578 2.116614,4.32157 4.864888,6.63821 2.748274,2.31664 7.041398,5.26816 10.304625,7.12025 3.263228,1.85208 5.556311,2.64584 5.696143,2.86763 0.139831,0.22178 -1.903666,-0.13361 -5.035891,0.0358 -3.132226,0.16937 -7.539207,0.88888 -9.52374,2.29998 -1.984533,1.4111 -1.631778,3.52762 -0.529224,5.3799 1.102553,1.85228 2.954452,3.43962 6.348853,4.63728 3.394401,1.19765 8.159261,1.97735 12.56894,2.02142 4.40968,0.0441 8.378597,-0.66151 9.877926,-0.52936 1.499329,0.13214 0.529111,1.10236 -0.661688,2.07266 -1.190799,0.9703 -2.60153,1.94018 -3.174783,2.42535 -0.573253,0.48517 -0.308723,0.48517 1.585789,0.57114 1.894512,0.086 5.602004,0.26682 7.233489,0.17863 1.631484,-0.0882 1.278679,-0.44099 0.837679,-1.1907 -0.441,-0.74971 -0.970169,-1.89624 -3.439386,-6.87877 -2.469217,-4.98253 -6.879387,-13.80287 -10.495312,-19.27086 z"
         style="fill:#a1d9f6;fill-opacity:1;stroke:#6daadb;stroke-width:2;stroke-linecap:butt;stroke-linejoin:miter;stroke-miterlimit:4;stroke-dasharray:none;stroke-opacity:1" />
      <path
         sodipodi:nodetypes="cccccccccccc"
         inkscape:original-d="m 134.98826,252.21353 c -5.43421,-0.80207 -10.86869,-1.60388 -16.30344,-2.40542 -6.50356,3.29619 -13.00685,6.59238 -19.510668,9.88897 -2.93985,3.11803 -5.87967,6.4142 -8.8199,9.6217 0.17846,1.78169 0.35662,3.56333 0.53454,5.34539 2.0496,1.78177 4.0984,3.56333 6.1472,5.34539 4.276528,1.9597 8.552888,3.91969 12.828938,5.87993 3.11832,-1.60384 6.23655,-3.2075 9.35443,-4.81085 2.04912,-3.02901 4.0984,-6.05837 6.1472,-9.08716 1.06923,-3.1181 2.13842,-6.23656 3.20723,-9.35444 2.04912,-2.40544 4.0984,-4.98929 6.1472,-7.48354 0.0893,-0.98014 0.17845,-1.96025 0.26727,-2.93997 z"
         inkscape:path-effect="#path-effect27"
         inkscape:connector-curvature="0"
         id="path25"
         d="m 132.2266,252.30249 c -2.67259,-0.89073 -8.10707,-1.69254 -14.07618,-0.44531 -5.96911,1.24723 -12.4724,4.54342 -17.17207,7.77101 -4.699678,3.22759 -7.683878,6.48308 -9.064902,8.97769 -1.381024,2.49462 -1.202859,4.27626 -0.08908,6.0583 1.11378,1.78204 3.162578,3.5636 6.325293,5.4345 3.162718,1.87089 7.439068,3.83089 11.136358,4.00898 3.69728,0.17809 6.81551,-1.42557 9.39896,-3.74182 2.58344,-2.31625 4.63272,-5.34561 6.19169,-8.41906 1.55897,-3.07345 2.62815,-6.19191 4.16534,-8.9715 1.53718,-2.77959 3.63015,-5.32755 4.69912,-7.06475 1.06897,-1.73719 1.15807,-2.7173 -1.51453,-3.60804 z"
         style="fill:#a1d9f6;fill-opacity:1;stroke:#6eabdc;stroke-width:2.66499996;stroke-linecap:butt;stroke-linejoin:miter;stroke-miterlimit:4;stroke-dasharray:none;stroke-opacity:1" />
      <path
         sodipodi:nodetypes="ccccccccccccccccccccccccc"
         inkscape:original-d="m 80.80131,253.16496 c -3.703903,-3.17526 -7.408073,-6.35026 -11.112503,-9.525 -4.85046,-5.73294 -9.70112,-11.64193 -14.55208,-17.4625 2.6e-4,0.17613 2.6e-4,0.35251 0,0.52917 0.17691,13.07209 0.35304,26.10529 0.52916,39.15833 0.17666,0.0879 0.35305,0.17612 0.52917,0.26458 1.93938,0.44044 3.88082,0.88168 5.82083,1.32292 -1.23433,0.44066 -2.46918,0.88168 -3.70416,1.32292 -0.79369,-0.1767 -1.58724,-0.35305 -2.38125,-0.52917 -0.0879,-2.6e-4 -0.17613,-2.6e-4 -0.26459,0 -0.0882,5.21882 -0.17612,10.40668 -0.26458,15.61042 0.17666,0.0879 0.35304,0.17612 0.52917,0.26458 5.37689,-0.17655 10.75998,-0.35304 16.13958,-0.52917 2.20501,-0.70578 4.40999,-1.41137 6.61458,-2.11666 -2.557,-0.353 -5.11501,-0.70582 -7.67291,-1.05834 -3.52783,-0.97049 -7.23168,-1.94054 -10.84792,-2.91041 -0.35253,-2.20524 -0.88168,-4.40999 -1.32292,-6.61459 1.23488,-1.58762 2.29332,-3.17526 3.43959,-4.7625 5.11457,-0.2648 10.40721,-0.35304 15.61041,-0.52916 -2.0281,-1.32312 -4.05668,-2.6461 -6.08541,-3.96875 -4.4978,-2.82258 -9.17196,-5.64471 -13.75834,-8.46667 -0.96989,-2.99893 -1.94001,-5.99749 -2.91041,-8.99583 1.4113,-0.97035 2.82248,-1.94055 4.23333,-2.91042 2.11648,0.70514 4.2336,1.41085 6.35,2.11667 5.02697,3.26268 10.05443,6.52612 15.081253,9.78958 z"
         inkscape:path-effect="#path-effect847"
         inkscape:connector-curvature="0"
         id="path845"
         d="m 76.435727,249.94589 c 0.661439,0.0441 -3.04273,-3.13091 -7.298511,-7.60284 -4.25578,-4.47194 -9.149816,-10.34478 -11.575152,-13.16712 -2.425337,-2.82234 -2.425337,-2.64596 -2.337013,3.97842 0.08832,6.62437 0.264446,19.65757 0.440885,26.22821 0.17644,6.57064 0.35284,6.65884 1.410635,6.92329 1.057795,0.26444 2.999235,0.70568 3.352138,1.14655 0.352903,0.44087 -0.881947,0.88189 -1.896344,1.01424 -1.014396,0.13235 -1.807947,-0.044 -2.248868,-0.13221 -0.44092,-0.0882 -0.52915,-0.0882 -0.617607,2.52119 -0.08846,2.60941 -0.176385,7.79727 -0.13224,10.44326 0.04415,2.64599 0.220538,2.73419 2.997132,2.69011 2.776593,-0.0441 8.159683,-0.22057 11.95201,-0.66157 3.792327,-0.441 5.997306,-1.14659 5.821055,-1.67566 -0.176252,-0.52908 -2.73426,-0.88191 -5.780109,-1.53236 -3.045848,-0.65046 -6.743776,-1.64258 -8.770675,-3.22179 -2.0269,-1.5792 -2.471243,-3.80091 -2.103273,-5.718 0.36797,-1.91708 1.48437,-3.46286 4.616361,-4.34321 3.131992,-0.88034 8.421545,-1.05964 10.008989,-1.80924 1.587444,-0.74959 -0.441133,-2.07257 -3.716506,-4.1255 -3.275374,-2.05293 -7.925308,-4.91443 -10.703506,-7.82498 -2.778198,-2.91055 -3.748318,-5.90911 -3.527691,-7.89348 0.220627,-1.98437 1.631813,-2.95456 3.395403,-3.08679 1.763591,-0.13224 3.880711,0.57347 7.452349,2.55771 3.571637,1.98425 8.599099,5.24769 9.260538,5.29177 z"
         style="fill:#a1d9f6;fill-opacity:1;stroke:#6eabdc;stroke-width:2;stroke-linecap:butt;stroke-linejoin:miter;stroke-miterlimit:4;stroke-dasharray:none;stroke-opacity:1" />
      <path
         sodipodi:nodetypes="ccccccccccccccccccccccccccc"
         inkscape:original-d="m 108.80614,287.09806 c 2.45023,-0.89117 4.9002,-1.78207 7.34991,-2.6727 2.27205,-2.62842 4.54384,-5.25657 6.81537,-7.88445 1.29193,-2.98445 2.58387,-6.05837 3.87541,-9.08716 2.53906,-3.47441 5.16748,-6.94928 7.75082,-10.42351 3.69717,-2.93998 7.39472,-5.79111 11.09168,-8.68626 3.38541,-0.8911 6.77109,-1.78207 10.15624,-2.6727 2.40548,0.22244 4.81112,0.53427 7.21628,0.80181 1.60373,1.33595 3.2075,2.67243 4.81086,4.00904 1.29204,1.51424 2.58387,2.9397 3.8754,4.40995 -0.0443,0.17792 -0.0888,0.44518 -0.13363,0.66817 2.6e-4,5.79852 2.6e-4,11.58142 0,17.37252 0.0448,0.0888 0.0893,0.0888 0.13363,0.13364 -1.60335,0.80154 -3.20697,1.60335 -4.81085,2.40542 -2.18287,0.17795 -4.36513,0.3561 -6.5481,0.53454 -0.0888,-0.31212 -0.17792,-0.62389 -0.26727,-0.93544 0.44546,-0.84615 0.89116,-1.69297 1.33635,-2.53906 -0.44502,-1.60329 -0.89064,-3.2075 -1.33635,-4.81085 0.31204,-0.13389 0.62389,-0.26754 0.93544,-0.40091 0.40076,-0.97925 0.89117,-1.96024 1.33635,-2.93996 -0.71222,0.35597 -1.42517,0.71245 -2.13816,1.06907 -5.08012,4.76817 -10.15598,9.53235 -15.23436,14.29892 -2.00437,3.20715 -4.00878,6.41421 -6.01356,9.62171 0.17846,-0.0894 0.35662,-0.17845 0.53453,-0.26727 -8.89284,0.0887 -17.8177,0.17791 -26.72695,0.26727 -0.3561,-0.13391 -0.71245,-0.26754 -1.06908,-0.40091 -0.98012,-0.62415 -1.95971,-1.24752 -2.93996,-1.87088 z"
         inkscape:path-effect="#path-effect839"
         inkscape:connector-curvature="0"
         id="path837"
         d="m 110.52131,286.96439 c 0.73512,-0.75735 3.18509,-1.64825 5.54593,-3.40785 2.36084,-1.75961 4.63263,-4.38776 6.40627,-7.19738 1.77364,-2.80961 3.08165,-5.87667 5.01134,-9.1176 1.92968,-3.24092 4.52942,-6.73712 7.68052,-9.93039 3.1511,-3.19326 6.82703,-6.072 10.36822,-7.96505 3.5412,-1.89305 6.92688,-2.78402 9.81971,-3.09607 2.89283,-0.31204 5.30336,-0.0442 7.3077,0.75754 2.00434,0.80174 3.60811,2.13821 5.06684,3.55391 1.45872,1.4157 2.72846,2.86058 3.3564,3.68538 0.62795,0.8248 0.57485,1.09034 0.55254,4.10111 -0.0223,3.01078 -0.0223,8.79368 0.0111,11.72263 0.0334,2.92895 0.0557,2.9512 -0.72371,3.37432 -0.77936,0.42312 -2.38298,1.22493 -4.27637,1.715 -1.89339,0.49008 -4.07565,0.66823 -5.21172,0.60132 -1.13607,-0.0669 -1.22515,-0.37869 -1.04699,-0.95761 0.17817,-0.57892 0.62386,-1.42574 0.62384,-2.65036 -2e-5,-1.22462 -0.44564,-2.82883 -0.51229,-3.69743 -0.0667,-0.8686 0.2452,-1.00225 0.6197,-1.55027 0.37451,-0.54802 0.82804,-1.54578 0.69461,-1.85757 -0.13344,-0.31179 -0.84639,0.0447 -3.74297,2.60703 -2.89657,2.56235 -7.97243,7.32653 -11.51384,11.31336 -3.54142,3.98684 -5.54583,7.1939 -6.45892,8.75304 -0.91309,1.55913 -0.73495,1.47006 -5.09244,1.47006 -4.35749,0 -13.28235,0.0892 -17.91508,0.067 -4.63274,-0.0222 -4.98909,-0.15588 -5.6575,-0.53464 -0.66842,-0.37877 -1.64801,-1.00214 -0.91289,-1.75948 z"
         style="fill:#a1d9f6;fill-opacity:1;stroke:#6eabdc;stroke-width:2;stroke-linecap:butt;stroke-linejoin:miter;stroke-miterlimit:4;stroke-dasharray:none;stroke-opacity:1" />
      <path
         sodipodi:nodetypes="cccccc"
         inkscape:original-d="m 159.75831,266.80438 c 0.99808,3.49206 1.99588,6.98438 2.99342,10.47696 -5.11375,1.99545 -10.22725,3.99097 -15.34127,5.98684 -0.12447,-1.2476 -0.24918,-2.49478 -0.37417,-3.74177 3.36722,-3.86603 6.73545,-7.73326 10.10278,-11.5995 0.87328,-0.37441 1.74643,-0.74862 2.61924,-1.12253 z"
         inkscape:path-effect="#path-effect851"
         inkscape:connector-curvature="0"
         id="path849"
         d="m 159.82081,268.73747 c 0.93526,1.55906 1.93306,5.05138 -0.12486,7.79542 -2.05792,2.74404 -7.17142,4.73955 -9.79083,5.11364 -2.61941,0.37408 -2.74413,-0.8731 -1.12288,-3.42963 1.62125,-2.55654 4.98948,-6.42377 7.10982,-8.54402 2.12034,-2.12026 2.99349,-2.49446 3.92875,-0.93541 z"
         style="fill:#a1d9f6;fill-opacity:1;stroke:#6eabdc;stroke-width:2;stroke-linecap:butt;stroke-linejoin:miter;stroke-miterlimit:4;stroke-dasharray:none;stroke-opacity:1" />
      <path
         sodipodi:nodetypes="cccccccccccccccccccccccccccccccccccc"
         inkscape:original-d="m 134.53587,239.16074 c 0.74862,-2.49478 1.49697,-4.98929 2.24506,-7.48355 0.12498,-0.68617 0.24972,-1.37224 0.37418,-2.05797 1.62098,-7.04416 3.24313,-14.219 4.86431,-21.32811 0.43678,-3.86659 0.87334,-7.73326 1.30962,-11.5995 0.0626,0.12446 0.12499,0.37392 0.18709,0.56127 1.56065,0.99839 3.1184,1.99535 4.67721,2.99342 1.99579,0.56098 3.86677,1.24699 5.79975,1.87089 0.81092,0.31152 1.6217,0.49863 2.43215,0.74835 -0.0621,1.30909 -0.12446,2.61898 -0.18709,3.92886 -0.12449,4.11656 -0.24918,8.23164 -0.37418,12.34785 -0.68576,2.30732 -1.37171,4.61459 -2.05797,6.92229 1.87141,-3.18121 3.74204,-6.36128 5.61266,-9.54153 1.2474,-4.36524 2.37005,-8.73107 3.55468,-13.0962 1.80866,-5.48781 3.61732,-10.97614 5.42558,-16.46381 0.99801,-0.43678 1.99587,-0.87334 2.99342,-1.30962 -0.0621,0.12442 -0.12447,0.24919 -0.18709,0.37418 0.0628,16.19284 0.12499,32.30371 0.18709,48.45596 -0.2492,-0.12499 -0.49864,-0.24971 -0.74836,-0.37417 -2.12097,2.49531 -4.24041,4.98876 -6.36101,7.48354 -1.49662,1.18477 -2.99316,2.36953 -4.49013,3.55469 0.74876,0.24923 1.49697,0.49864 2.24506,0.74835 3.0554,-2.0578 6.11183,-4.11621 9.16735,-6.17392 0.18733,0.1868 0.37444,0.37391 0.56126,0.56126 -0.18682,4.73932 -0.37391,9.4789 -0.56126,14.21874 -0.31157,-0.37446 -0.49864,-0.74862 -0.74836,-1.12253 -2.74325,-2.36967 -5.48767,-4.73984 -8.2319,-7.10937 -1.87064,-0.43681 -3.74151,-0.87335 -5.61266,-1.30962 -3.18057,0.56106 -6.36075,1.12227 -9.54152,1.6838 0.56159,-0.74869 1.1228,-1.49698 1.6838,-2.24507 1.30936,-4.23926 2.6195,-8.48161 3.92886,-12.72203 -0.37388,-1.99572 -0.74809,-3.99148 -1.12253,-5.98683 -1.49629,-0.74854 -2.99316,-1.49698 -4.49013,-2.24507 -1.87075,0.93525 -3.74151,1.99535 -5.61266,2.99342 -1.99568,4.74012 -3.99096,9.4789 -5.98684,14.21874 -0.31157,-0.4992 -0.62336,-0.99807 -0.93544,-1.49671 z"
         inkscape:path-effect="#path-effect855"
         inkscape:connector-curvature="0"
         id="path853"
         d="m 135.06598,238.16274 c 0.21834,-1.49683 0.96669,-3.99134 1.4032,-5.58155 0.43652,-1.59021 0.56126,-2.27628 1.42723,-6.14277 0.86598,-3.86649 2.50164,-11.03824 3.5306,-16.52608 1.02896,-5.48785 1.46552,-9.35452 1.70558,-11.22223 0.24005,-1.86771 0.32112,-1.62448 1.13256,-1.03151 0.81144,0.59297 2.36918,1.58993 4.13448,2.40682 1.7653,0.81688 3.66038,1.42819 5.04109,1.86742 1.38072,0.43923 2.17397,0.6833 2.54808,1.46254 0.3741,0.77924 0.31173,2.08913 0.21817,4.80235 -0.0936,2.71322 -0.21827,6.8283 -0.6236,10.04004 -0.40534,3.21175 -1.09128,5.51902 -0.49866,5.08226 0.59262,-0.43675 2.46325,-3.61682 3.99317,-7.39745 1.52992,-3.78062 2.71065,-8.13069 4.20731,-13.05716 1.49665,-4.92647 3.30531,-10.4148 4.70855,-13.37694 1.40325,-2.96213 2.4011,-3.3987 2.86876,-3.55471 0.46765,-0.15601 0.40527,-0.0312 0.40527,8.12769 0,8.15894 0.0622,24.26981 -0.0313,32.2836 -0.0935,8.01378 -0.34294,7.88907 -1.52822,9.07432 -1.18528,1.18526 -3.30471,3.67871 -5.1133,5.51851 -1.80858,1.8398 -3.30512,3.02457 -3.67929,3.7419 -0.37418,0.71734 0.37404,0.96674 2.27585,0.0626 1.90182,-0.90417 4.95825,-2.96258 6.57952,-3.89793 1.62127,-0.93536 1.80838,-0.74825 1.80839,1.71495 0,2.4632 -0.18708,7.20278 -0.41498,9.37118 -0.2279,2.16841 -0.45815,1.82304 -1.9546,0.45129 -1.49646,-1.37175 -4.24087,-3.74193 -6.54822,-5.14509 -2.30735,-1.40315 -4.17822,-1.83969 -6.70403,-1.77734 -2.5258,0.0623 -5.70598,0.62355 -7.01561,0.52985 -1.30964,-0.0937 -0.74842,-0.84199 0.1867,-3.33568 0.93512,-2.49368 2.24526,-6.73603 2.71292,-9.85405 0.46767,-3.11801 0.0935,-5.11377 -0.84182,-6.48559 -0.9353,-1.37182 -2.43217,-2.12025 -4.10298,-2.00251 -1.67081,0.11775 -3.56746,1.1293 -5.50097,3.99831 -1.93351,2.86902 -3.92878,7.6078 -5.0826,9.72825 -1.15381,2.12044 -1.4656,1.62157 -1.24726,0.12474 z"
         style="fill:#87c3ea;fill-opacity:1;stroke:#6da8da;stroke-width:2;stroke-linecap:butt;stroke-linejoin:miter;stroke-miterlimit:4;stroke-dasharray:none;stroke-opacity:1" />
      <path
         sodipodi:nodetypes="cccccccccc"
         inkscape:original-d="m 117.94022,236.84702 c 1.37224,-3.11841 2.74423,-6.23655 4.11595,-9.35444 1.99567,-2.24509 3.99149,-4.49039 5.98683,-6.73519 1.37208,-0.12497 2.74424,-0.24971 4.11595,-0.37417 1.62137,2.74313 3.24314,5.23821 4.86431,7.85772 -0.87284,3.36743 -1.7459,6.73493 -2.61924,10.10279 -2.36975,2.74396 -4.73932,5.48767 -7.10937,8.2319 -0.74817,-0.125 -1.49645,-0.24971 -2.24507,-0.37418 -1.87115,-2.1212 -3.7415,-4.24094 -5.61265,-6.36101 -0.49864,-0.99806 -0.99755,-1.99588 -1.49671,-2.99342 z"
         inkscape:path-effect="#path-effect859"
         inkscape:connector-curvature="0"
         id="path857"
         d="m 118.87571,235.78664 c 0.43663,-2.05808 1.80861,-5.17623 3.49236,-7.8577 1.68375,-2.68147 3.67957,-4.92677 5.3633,-6.11153 1.68373,-1.18475 3.05589,-1.30949 4.58017,-0.0174 1.52427,1.29204 3.09024,3.82166 3.46447,6.81501 0.37423,2.99335 -0.49883,6.36085 -2.12029,9.41678 -1.62147,3.05592 -3.99104,5.79963 -5.55016,7.10941 -1.55913,1.30977 -2.30741,1.18505 -3.61741,0.0622 -1.31,-1.12285 -3.18035,-3.24259 -4.36526,-4.8017 -1.18491,-1.55911 -1.68382,-2.55693 -1.24718,-4.61501 z"
         style="fill:#87c3ea;fill-opacity:1;stroke:#6daadb;stroke-width:2;stroke-linecap:butt;stroke-linejoin:miter;stroke-miterlimit:4;stroke-dasharray:none;stroke-opacity:1" />
      <path
         sodipodi:nodetypes="ccccccccccc"
         inkscape:original-d="m 128.10381,242.32978 c -1.16831,-2.04377 -2.33689,-4.08727 -3.50573,-6.13048 1.08061,-3.22795 2.16103,-6.45588 3.24115,-9.68339 0.46324,-1.16124 0.83811,-2.32244 1.25677,-3.48324 0.24273,0.9051 0.48533,1.811 0.7276,2.71692 0.35312,1.16104 0.70582,2.32188 1.05834,3.48323 0.79413,0.13908 1.58776,0.27838 2.38125,0.418 0.0884,0.16222 0.17665,0.27838 0.26458,0.41798 -1.10267,1.39366 -2.2046,2.78632 -3.30729,4.17989 -0.61723,2.43851 -1.23446,4.8298 -1.85208,7.24512 -0.0879,0.27842 -0.17613,0.55704 -0.26459,0.83597 z"
         inkscape:path-effect="#path-effect902"
         inkscape:connector-curvature="0"
         id="path900"
         d="m 127.56364,241.1685 c -0.62846,-0.88231 -1.79704,-2.92581 -1.84107,-5.5615 -0.044,-2.6357 1.03639,-5.86363 1.78856,-8.06504 0.75218,-2.20142 1.16607,-3.34854 1.49667,-3.47632 0.33061,-0.12778 0.57321,0.77811 0.87091,1.8116 0.29769,1.03349 0.6504,2.19433 1.22385,2.84465 0.57346,0.65032 1.36708,0.78963 1.81316,0.93716 0.44607,0.14753 0.52381,0.27035 0.0166,1.03687 -0.50723,0.76652 -1.60916,2.15918 -2.47198,4.07449 -0.86282,1.91532 -1.47448,4.30803 -1.82725,5.6549 -0.35277,1.34686 -0.44096,1.62549 -1.06943,0.74319 z"
         style="fill:#be1b79;fill-opacity:1;stroke:none;stroke-width:0.27152979px;stroke-linecap:butt;stroke-linejoin:miter;stroke-opacity:1" />
      <path
         sodipodi:nodetypes="cccccccc"
         inkscape:original-d="m 126.27433,232.38918 c 0.87335,1.30936 1.74643,2.61898 2.61925,3.92887 -0.76372,1.29382 -1.52763,2.55661 -2.29184,3.83532 -0.0309,-0.0782 -0.0621,-0.15618 -0.0935,-0.23387 -0.37326,-1.18308 -0.74809,-2.37005 -1.12253,-3.55468 0.2185,-1.13823 0.4368,-2.27651 0.65481,-3.41437 0.0782,-0.1873 0.15617,-0.37444 0.23386,-0.56127 z"
         inkscape:path-effect="#path-effect906"
         inkscape:connector-curvature="0"
         id="path904"
         d="m 126.71085,233.04396 c 0.43652,0.65478 1.3096,1.9644 1.36084,3.26408 0.0512,1.29968 -0.70582,2.56658 -1.10349,3.16692 -0.39767,0.60034 -0.42885,0.52235 -0.63119,-0.10805 -0.20234,-0.63039 -0.57718,-1.81736 -0.65509,-2.97886 -0.0779,-1.1615 0.14039,-2.29978 0.28853,-2.96237 0.14813,-0.66259 0.22611,-0.84973 0.26502,-0.94311 0.0389,-0.0934 0.0389,-0.0934 0.47538,0.56139 z"
         style="fill:#f06d6f;fill-opacity:1;stroke:#f06d6f;stroke-width:0.26458332px;stroke-linecap:butt;stroke-linejoin:miter;stroke-opacity:1" />
      <path
         sodipodi:nodetypes="cccccccccccc"
         inkscape:original-d="m 139.96353,239.32084 c 0.91581,-2.78504 1.83135,-5.56981 2.74662,-8.35432 1.25899,-2.17443 2.5943,-4.34909 3.89106,-6.52324 1.60223,-0.45797 3.20466,-0.91581 4.8066,-1.37332 1.06818,0.99138 2.13653,1.98341 3.2044,2.97552 0.0766,2.21227 0.15285,4.42485 0.22888,6.63768 -0.91538,3.24265 -1.83082,6.48483 -2.74663,9.72763 -0.91536,1.71655 -1.83082,3.43302 -2.74662,5.14993 -0.99176,0.45759 -1.98341,0.91528 -2.97552,1.37331 -0.0379,-0.26738 -0.076,-0.53433 -0.11444,-0.8011 -1.8293,-2.05852 -3.6619,-4.1202 -5.49325,-6.17991 -0.26677,-0.87765 -0.5338,-1.75505 -0.8011,-2.63218 z"
         inkscape:path-effect="#path-effect1011"
         inkscape:connector-curvature="0"
         id="path1009"
         d="m 140.55484,238.36691 c 0.32434,-1.83116 1.23987,-4.61593 2.34112,-7.08701 1.10124,-2.47107 2.40841,-4.66252 3.85797,-5.97847 1.44956,-1.31595 3.05199,-1.77379 4.3869,-1.5068 1.33491,0.26698 2.40325,1.25902 2.97546,2.86107 0.5722,1.60206 0.6485,3.81464 0.22887,6.54235 -0.41963,2.72771 -1.33507,5.96989 -2.25062,8.44956 -0.91554,2.47968 -1.83099,4.19615 -2.7847,5.28348 -0.95371,1.08734 -1.94536,1.54502 -2.46053,1.64031 -0.51518,0.0953 -0.55331,-0.17165 -1.48716,-1.3342 -0.93385,-1.16254 -2.76645,-3.22422 -3.81553,-4.69298 -1.04907,-1.46875 -1.31611,-2.34615 -0.99178,-4.17731 z"
         style="fill:#87c3ea;fill-opacity:1;stroke:#6da8da;stroke-width:1.96500003;stroke-linecap:butt;stroke-linejoin:miter;stroke-miterlimit:4;stroke-dasharray:none;stroke-opacity:1" />
      <path
         sodipodi:nodetypes="cccccccccccccccccccccccccccccc"
         inkscape:original-d="m 129.71381,243.96107 c -2.36953,-2.74423 -4.73932,-5.4882 -7.10937,-8.2319 2.61948,-3.99146 5.23875,-7.98271 7.85772,-11.97368 0.12499,1.37172 0.24972,2.74371 0.37418,4.11596 2.24558,2.61927 4.49039,5.23821 6.73519,7.85772 2.99368,-1.1228 5.9871,-2.24533 8.98026,-3.36759 1.37225,-4.36568 2.74423,-8.73107 4.11595,-13.09621 -2.7437,0.24919 -5.48744,0.49861 -8.2319,0.74835 -1.38383,0.10059 -2.7626,0.20105 -4.15195,0.30252 0.9512,-3.60667 1.89515,-7.18659 2.84233,-10.77948 0.43675,-3.55454 0.74862,-7.10964 1.12253,-10.66406 -1.93283,-15.15321 -3.86624,-30.55808 -5.79975,-45.83673 -0.49863,0.12446 -0.99754,0.24919 -1.49671,0.37418 -17.72185,5.4911 -35.67131,10.97561 -53.507357,16.46381 -0.12446,-2.7e-4 -0.24918,-2.7e-4 -0.37418,0 -1.53838,-4.64238 -3.07051,-9.26485 -4.60617,-13.89687 -3.96835,-2.69011 -8.02543,-5.38013 -12.03854,-8.0698 -0.44072,-0.0444 -0.88168,-0.0885 -1.32292,-0.13229 -2.55874,2.86759 -5.115012,5.73238 -7.672915,8.59896 -0.220243,5.42423 -0.440708,10.84766 -0.661458,16.27188 0.132563,6.96745 0.264848,13.93446 0.396875,20.90208 2.954888,3.17486 5.909292,6.34974 8.863538,9.525 0.97041,0.26433 1.94055,0.52891 2.91042,0.79376 -1.05787,0.61698 -2.1164,1.23445 -3.175,1.85208 8.82231,11.0273 17.63915,22.04835 26.45833,33.07292 0.52944,-0.17666 1.23499,-0.35305 1.85209,-0.52917 3.966987,1.23383 7.937757,2.46918 11.906247,3.70417 2.64598,1.2344 5.29193,2.29279 7.9375,3.43958 5.20349,-0.0885 10.4072,-0.17665 15.61041,-0.26458 0.72845,-0.39378 1.4567,-0.78733 2.18465,-1.18061 z"
         inkscape:path-effect="#path-effect867"
         inkscape:connector-curvature="0"
         id="path865"
         d="m 128.16495,242.78576 c -0.82095,-1.56868 -3.19074,-4.31265 -3.06592,-7.68037 0.12483,-3.36772 2.74409,-7.35898 4.11596,-8.66857 1.37187,-1.30958 1.4966,0.0624 2.68162,2.05827 1.18503,1.99587 3.42983,4.61481 6.04925,5.36312 2.61941,0.74831 5.61283,-0.37422 7.79542,-3.11829 2.1826,-2.74407 3.55458,-7.10946 2.86868,-9.16729 -0.6859,-2.05784 -3.42964,-1.80841 -5.49379,-1.63324 -2.06414,0.17516 -3.44291,0.27562 -3.66209,-1.47713 -0.21917,-1.75274 0.72478,-5.33266 1.38588,-8.90961 0.66111,-3.57695 1.03464,-7.12555 0.26292,-16.48032 -0.77172,-9.35477 -2.72066,-24.75767 -3.93656,-32.33469 -1.2159,-7.57702 -1.71481,-7.45229 -10.83072,-4.6618 -9.1159,2.7905 -27.054569,8.31009 -36.034848,11.0541 -8.980279,2.74402 -9.104999,2.74402 -9.936849,0.42288 -0.831849,-2.32113 -2.363984,-6.9436 -5.122766,-10.59437 -2.758781,-3.65077 -6.802187,-6.36119 -9.029017,-7.72821 -2.22683,-1.36702 -2.66779,-1.41112 -4.167772,6.1e-4 -1.499983,1.41172 -4.056255,4.27651 -5.445446,8.42192 -1.389191,4.14541 -1.609655,9.56884 -1.653757,15.76468 -0.0441,6.19585 0.08818,13.16286 1.63164,18.23422 1.543457,5.07136 4.497859,8.24624 6.460282,9.96607 1.962422,1.71982 2.93256,1.9844 2.888627,2.4252 -0.04393,0.4408 -1.102461,1.05828 2.779225,6.88081 3.881686,5.82254 12.698525,16.84359 17.376333,22.27917 4.677808,5.43557 5.376702,5.23589 7.668671,5.76481 2.291969,0.52892 6.262737,1.76428 9.586037,2.96185 3.32331,1.19757 5.93708,2.33021 9.86168,2.85935 3.92461,0.52914 9.12831,0.44094 12.09417,0.2 2.96585,-0.24094 3.6941,-0.63449 2.87314,-2.20317 z"
         style="fill:#a1d9f6;fill-opacity:1;stroke:#6eabdc;stroke-width:2;stroke-linecap:butt;stroke-linejoin:miter;stroke-miterlimit:4;stroke-dasharray:none;stroke-opacity:1" />
      <path
         sodipodi:nodetypes="ccc"
         inkscape:original-d="m 64.171413,162.10907 c -0.498638,4.80168 -0.997542,9.60362 -1.496709,14.40583 2.245463,3.2428 4.490393,6.48547 6.735192,9.72861"
         inkscape:path-effect="#path-effect871"
         inkscape:connector-curvature="0"
         id="path869"
         d="m 64.171413,162.10907 c -0.498873,4.80166 -0.997776,9.6036 -0.124662,13.62622 0.873114,4.02262 3.118041,7.26529 5.363145,10.50822"
         style="fill:none;stroke:#6eabdc;stroke-width:2.20000005;stroke-linecap:round;stroke-linejoin:miter;stroke-miterlimit:4;stroke-dasharray:none;stroke-opacity:1" />
      <path
         sodipodi:nodetypes="cc"
         inkscape:original-d="m 108.96121,219.83858 c 2.40123,-0.87334 4.86457,-1.74642 7.29646,-2.61924"
         inkscape:path-effect="#path-effect875"
         inkscape:connector-curvature="0"
         id="path873"
         d="m 108.96121,219.83858 c 2.40484,-0.86328 4.86462,-1.74627 7.29646,-2.61924"
         style="fill:none;stroke:#6eabdc;stroke-width:0.76499999;stroke-linecap:butt;stroke-linejoin:miter;stroke-miterlimit:4;stroke-dasharray:none;stroke-opacity:1" />
      <path
         sodipodi:nodetypes="ccc"
         inkscape:original-d="m 137.0193,222.31375 c 0.25382,0.87066 0.50738,1.74158 0.76067,2.61276 1.00368,-0.27592 2.0067,-0.55147 3.00964,-0.82682"
         inkscape:path-effect="#path-effect910"
         inkscape:connector-curvature="0"
         id="path908"
         d="m 137.0193,222.31375 c 0.25351,0.87075 0.50706,1.74167 1.13573,2.03934 0.62867,0.29767 1.63169,0.0221 2.63458,-0.2534"
         style="fill:none;stroke:#6eabdc;stroke-width:0.96500003;stroke-linecap:round;stroke-linejoin:miter;stroke-miterlimit:4;stroke-dasharray:none;stroke-opacity:1" />
      <path
         sodipodi:nodetypes="ccccc"
         inkscape:original-d="m 80.100656,183.10627 c 0.08846,0.17612 0.176654,0.35251 0.264584,0.52917 3.971395,2.77952 7.937764,5.55598 11.90625,8.33437 6.923436,1.32264 13.84679,2.64557 20.76979,3.96875 1.14676,-1.36724 2.29332,-2.73429 3.43959,-4.10104"
         inkscape:path-effect="#path-effect922"
         inkscape:connector-curvature="0"
         id="path920"
         d="m 80.100656,183.10627 c 0.08814,0.17628 0.176334,0.35267 2.20605,1.83083 2.029715,1.47817 5.996086,4.25462 11.442124,6.30514 5.446039,2.05051 12.36939,3.37344 16.40429,3.35125 4.0349,-0.0222 5.18146,-1.38924 6.32775,-2.75597"
         style="fill:none;stroke:#000000;stroke-width:1.76499999;stroke-linecap:round;stroke-linejoin:miter;stroke-miterlimit:4;stroke-dasharray:none;stroke-opacity:1" />
      <path
         sodipodi:nodetypes="cccccccccccccccc"
         inkscape:original-d="m 116.72492,213.79809 c -3.74151,-0.15617 -7.48329,-0.31207 -11.22532,-0.46772 -4.45899,1.74602 -8.91763,3.49206 -13.376843,5.23849 -0.280387,0.0621 -0.561001,0.12446 -0.841899,0.18708 -4.245067,-5.49422 -8.418724,-10.97613 -12.628484,-16.4638 2.214132,-5.02044 4.365666,-10.04069 6.548103,-15.06064 0.467958,0.46743 0.935709,0.93518 1.403164,1.40317 1.652882,0.87281 3.305498,1.7459 4.95785,2.61924 4.053615,1.30928 8.107443,2.61898 12.160759,3.92886 2.93121,0.0933 5.86238,0.18683 8.79317,0.28064 0.12498,0.21798 0.24972,0.43627 0.37418,0.65481 1.09204,2.05851 2.18297,4.11568 3.27405,6.17392 0.31209,0.93523 0.62389,1.87063 0.93544,2.80633 -0.12448,2.214 -0.24918,4.4275 -0.37417,6.64165 -0.0309,0.24922 -0.0621,0.49864 -0.0936,0.74836 0.0315,0.43678 0.0626,0.87281 0.0936,1.30961 z"
         inkscape:path-effect="#path-effect918"
         inkscape:connector-curvature="0"
         id="path916"
         d="m 114.83855,213.50175 c -1.85515,0.14044 -5.59693,-0.0155 -9.69741,0.77966 -4.10048,0.79512 -8.559115,2.54116 -10.928921,3.44545 -2.369806,0.9043 -2.65042,0.96665 -4.903744,-1.75667 -2.253324,-2.72332 -6.446635,-8.19015 -7.457478,-13.45005 -1.010842,-5.2599 1.166917,-10.26874 2.492045,-12.54484 1.325128,-2.27611 1.792877,-1.80835 2.853095,-1.13793 1.060217,0.67043 2.712837,1.54351 5.565852,2.63482 2.853015,1.09132 6.906843,2.40101 10.399151,3.10257 3.49231,0.70156 6.42348,0.79511 7.95121,0.95096 1.52773,0.15585 1.65247,0.37414 2.26072,1.51266 0.60825,1.13852 1.69918,3.19569 2.40077,4.69239 0.70159,1.4967 1.01339,2.4321 1.10695,4.0069 0.0936,1.57479 -0.0311,3.78829 -0.10908,5.01996 -0.078,1.23168 -0.10915,1.4811 -0.10916,1.82437 -10e-6,0.34328 0.0312,0.77931 -1.824,0.91975 z"
         style="fill:#ffffff;fill-opacity:1;stroke:#ffffff;stroke-width:0.26458332px;stroke-linecap:butt;stroke-linejoin:miter;stroke-opacity:1" />
      <path
         sodipodi:nodetypes="cc"
         inkscape:original-d="m 80.842349,198.2736 c -2.427433,-0.21606 -4.90908,-0.43185 -7.364017,-0.64738"
         inkscape:path-effect="#path-effect930"
         inkscape:connector-curvature="0"
         id="path928"
         d="m 80.842349,198.2736 c -2.427665,-0.21342 -4.909105,-0.43157 -7.364017,-0.64738"
         style="fill:none;stroke:#000000;stroke-width:1.66499996;stroke-linecap:round;stroke-linejoin:miter;stroke-miterlimit:4;stroke-dasharray:none;stroke-opacity:1" />
      <path
         sodipodi:nodetypes="ccc"
         inkscape:original-d="m 85.853889,187.61361 c -1.434643,1.6826 -2.869317,3.3652 -4.304729,5.04861 -0.126273,2.18588 -0.252769,4.3713 -0.379551,6.55736"
         inkscape:path-effect="#path-effect926"
         inkscape:connector-curvature="0"
         id="path924"
         d="m 85.853889,187.61361 c -1.434664,1.68258 -2.869341,3.36518 -3.650296,5.29983 -0.780955,1.93465 -0.90745,4.12007 -1.033984,6.30614"
         style="fill:none;stroke:#000000;stroke-width:1.36500001;stroke-linecap:butt;stroke-linejoin:miter;stroke-miterlimit:4;stroke-dasharray:none;stroke-opacity:1" />
      <path
         sodipodi:nodetypes="cc"
         inkscape:original-d="m 82.800279,192.53265 c -2.86081,-1.01117 -5.68373,-2.02208 -8.52599,-3.03273"
         inkscape:path-effect="#path-effect934"
         inkscape:connector-curvature="0"
         id="path932"
         d="m 82.800279,192.53265 c -2.858779,-1.01688 -5.683842,-2.02177 -8.52599,-3.03273"
         style="fill:none;stroke:#000000;stroke-width:1.66499996;stroke-linecap:round;stroke-linejoin:miter;stroke-miterlimit:4;stroke-dasharray:none;stroke-opacity:1" />
      <path
         sodipodi:nodetypes="cccccccccccccc"
         inkscape:original-d="m 107.57789,213.68969 c -0.21553,-1.5513 -0.43132,-3.10233 -0.64739,-4.65309 0.97121,-1.80729 1.94243,-3.61484 2.91324,-5.42186 0.70148,-0.58012 1.40294,-1.16017 2.10401,-1.73985 0.83613,0.0267 1.67268,0.0537 2.50862,0.0809 0.58004,0.43119 1.13319,0.86292 1.69939,1.29477 0.3403,0.19644 0.68008,0.39301 1.02017,0.59017 -0.0836,3.33955 -0.16734,6.67359 -0.2514,10.01078 -0.0267,0.0402 -0.0537,0.0807 -0.0809,0.12138 -1.12762,-0.14974 -2.23861,-0.29698 -3.35832,-0.44507 -2.06098,0.15467 -4.12046,0.30947 -6.1825,0.46471 0.21345,-0.0338 0.42644,-0.0673 0.63926,-0.10056 -0.12158,-0.068 -0.24251,-0.13514 -0.36415,-0.20231 z"
         inkscape:path-effect="#path-effect942"
         inkscape:connector-curvature="0"
         id="path940"
         d="m 107.46998,212.91406 c -0.10792,-0.77563 -0.32371,-2.32666 0.054,-4.00573 0.37767,-1.67907 1.34889,-3.48662 2.1851,-4.68015 0.83621,-1.19353 1.53766,-1.77358 2.30625,-2.04995 0.76858,-0.27638 1.60513,-0.2494 2.31054,-0.0169 0.7054,0.23248 1.26351,0.6577 1.71678,0.97186 0.45327,0.31416 0.79305,0.51072 0.92125,2.27892 0.1282,1.76819 0.0445,5.10223 -0.0108,6.79091 -0.0553,1.68868 -0.0823,1.72918 -0.65968,1.67482 -0.5774,-0.0544 -1.68839,-0.2016 -3.27871,-0.19834 -1.59031,0.003 -3.64979,0.15806 -4.57408,0.21877 -0.92429,0.0607 -0.7113,0.0272 -0.66579,-0.0234 0.0455,-0.0506 -0.0754,-0.11774 -0.13614,-0.15148 -0.0607,-0.0337 -0.0608,-0.0337 -0.16867,-0.80934 z"
         style="fill:#040507;fill-opacity:1;stroke:none;stroke-width:0.26458332px;stroke-linecap:butt;stroke-linejoin:miter;stroke-opacity:1" />
      <path
         d="m 114.64676,213.11856 a 0.34332839,0.37193906 0 0 1 -0.34044,0.37193 0.34332839,0.37193906 0 0 1 -0.34616,-0.36568 0.34332839,0.37193906 0 0 1 0.33463,-0.37807 0.34332839,0.37193906 0 0 1 0.35178,0.35933"
         sodipodi:open="true"
         sodipodi:end="6.2496052"
         sodipodi:start="0"
         sodipodi:ry="0.37193906"
         sodipodi:rx="0.34332839"
         sodipodi:cy="213.11856"
         sodipodi:cx="114.30344"
         sodipodi:type="arc"
         id="path950"
         style="opacity:1;fill:#ffffff;fill-opacity:1;stroke:#ffffff;stroke-width:1.66499996;stroke-linecap:round;stroke-linejoin:miter;stroke-miterlimit:4;stroke-dasharray:none;stroke-opacity:1" />
      <path
         sodipodi:nodetypes="ccc"
         inkscape:original-d="m 90.22567,219.83293 c 4.145405,-1.76416 8.290542,-3.52805 12.43542,-5.29167 5.46789,-0.0885 11.11276,-0.17665 16.66875,-0.26458"
         inkscape:path-effect="#path-effect879"
         inkscape:connector-curvature="0"
         id="path877"
         d="m 90.22567,219.83293 c 4.145462,-1.76403 8.290599,-3.52792 13.09697,-4.45319 4.80637,-0.92527 10.45121,-1.01487 16.0072,-1.10306"
         style="fill:none;stroke:#6eabdc;stroke-width:0.96499997;stroke-linecap:round;stroke-linejoin:miter;stroke-miterlimit:4;stroke-dasharray:none;stroke-opacity:1" />
      <path
         sodipodi:nodetypes="cccccccccccccccc"
         inkscape:original-d="m 113.76236,198.68691 c -1.86897,-0.57248 -3.7382,-1.14469 -5.6077,-1.71664 -1.94544,1.86913 -3.89079,3.7382 -5.83658,5.6077 -0.49572,2.55597 -0.99157,5.11151 -1.48775,7.66766 0.49624,1.60213 0.9921,3.20414 1.48775,4.8066 0.26733,-0.11472 0.45804,-0.22915 0.68666,-0.34333 1.63833,-0.22883 3.28095,-0.45804 4.92104,-0.68666 0.0193,-0.0765 0.0384,-0.15285 0.0572,-0.22888 -0.36213,-1.52615 -0.72454,-3.05207 -1.0872,-4.57771 1.18265,-2.09804 2.44171,-4.1965 3.66217,-6.29436 0.95381,-0.22911 1.90765,-0.45803 2.86107,-0.68665 0.91551,0.57176 1.83135,1.14416 2.74663,1.71664 0.22913,-0.22913 0.45803,-0.45804 0.68665,-0.68666 -0.7237,-1.37199 -1.44934,-2.74689 -2.17441,-4.11994 -0.3049,-0.15284 -0.6101,-0.30544 -0.91554,-0.45777 z"
         inkscape:path-effect="#path-effect938"
         inkscape:connector-curvature="0"
         id="path936"
         d="m 112.82783,198.40083 c -0.93454,-0.28608 -2.80377,-0.85829 -4.71118,-0.20986 -1.90742,0.64844 -3.85277,2.51751 -5.07363,4.73022 -1.22087,2.21271 -1.71671,4.76825 -1.71674,6.84746 -2e-5,2.07921 0.49583,3.68122 0.87369,4.41746 0.37786,0.73624 0.5762,0.63707 1.50967,0.46563 0.93346,-0.17145 2.57608,-0.40065 3.40568,-0.55335 0.82959,-0.15269 0.84867,-0.22905 0.67694,-1.03008 -0.17172,-0.80103 -0.53413,-2.32695 -0.10977,-4.13056 0.42435,-1.80361 1.65492,-3.91865 2.74212,-5.08202 1.08719,-1.16336 2.04104,-1.39228 2.97538,-1.22065 0.93435,0.17163 1.85019,0.74403 2.42249,0.91555 0.5723,0.17152 0.8012,-0.0574 0.5535,-0.85761 -0.2477,-0.80022 -0.97334,-2.17512 -1.48824,-2.938 -0.51491,-0.76287 -0.82011,-0.91547 -0.97275,-0.99179 -0.15264,-0.0763 -0.15263,-0.0763 -1.08716,-0.3624 z"
         style="fill:#be1b79;fill-opacity:1;stroke:#be1b79;stroke-width:0.26458332px;stroke-linecap:butt;stroke-linejoin:miter;stroke-opacity:1" />
      <path
         d="m 112.45678,207.1347 a 2.5225053,3.493582 0 0 1 -2.50133,3.49346 2.5225053,3.493582 0 0 1 -2.54333,-3.4348 2.5225053,3.493582 0 0 1 2.45863,-3.55113 2.5225053,3.493582 0 0 1 2.58461,3.37518"
         sodipodi:open="true"
         sodipodi:end="6.2496052"
         sodipodi:start="0"
         sodipodi:ry="3.493582"
         sodipodi:rx="2.5225053"
         sodipodi:cy="207.1347"
         sodipodi:cx="109.93427"
         sodipodi:type="arc"
         id="path948"
         style="opacity:1;fill:#ffffff;fill-opacity:1;stroke:#ffffff;stroke-width:1.5563122;stroke-linecap:round;stroke-linejoin:miter;stroke-miterlimit:4;stroke-dasharray:none;stroke-opacity:1" />
      <path
         sodipodi:nodetypes="cccccccccccccc"
         inkscape:original-d="m 131.67187,189.39029 c 3.0214,0.48527 6.04254,0.97081 9.06341,1.45662 -0.0537,1.18652 -0.10764,2.37348 -0.16185,3.56062 -0.15035,1.38007 -0.3009,2.75977 -0.45175,4.14005 0.0957,1.98382 0.191,4.00523 0.2861,6.00824 -0.0951,2.34611 -0.19047,4.69189 -0.2861,7.03823 -0.17142,0.13327 -0.34307,0.26677 -0.515,0.40055 -2.0059,0.99327 -4.00523,1.98342 -6.00824,2.97552 -0.0951,-0.22919 -0.19047,-0.45804 -0.28611,-0.68666 -0.4763,-2.26874 -0.95342,-4.53983 -1.43053,-6.80935 -0.17139,-2.74664 -0.34307,-5.49351 -0.51499,-8.23988 0.11469,-2.0219 0.22915,-4.04391 0.34332,-6.06547 0.22912,-0.32447 0.45804,-0.64877 0.68666,-0.97276 -0.24115,-0.93463 -0.48302,-1.87074 -0.72492,-2.80571 z"
         inkscape:path-effect="#path-effect954"
         inkscape:connector-curvature="0"
         id="path952"
         d="m 133.30334,190.1006 c 1.38988,-0.22474 4.41102,0.2608 5.89451,1.09681 1.4835,0.83601 1.42954,2.02297 1.32727,3.30657 -0.10228,1.28359 -0.25283,2.66329 -0.2809,4.34539 -0.0281,1.68209 0.0682,3.70345 0.0682,5.878 0,2.17455 -0.0953,4.52033 -0.22874,5.76016 -0.13338,1.23982 -0.30503,1.37333 -1.39393,1.93689 -1.08891,0.56356 -3.08824,1.5537 -4.13749,1.93518 -1.04925,0.38147 -1.1446,0.15262 -1.43057,-1.0961 -0.28596,-1.24871 -0.76308,-3.51981 -1.08731,-6.02791 -0.32423,-2.5081 -0.49591,-5.25497 -0.52451,-7.63912 -0.0286,-2.38415 0.0858,-4.40616 0.25759,-5.57919 0.17175,-1.17303 0.40067,-1.49733 0.39427,-2.12658 -0.006,-0.62925 -0.24826,-1.56536 1.14162,-1.7901 z"
         style="fill:#ffffff;fill-opacity:1;stroke:#ffffff;stroke-width:0.26458332px;stroke-linecap:butt;stroke-linejoin:miter;stroke-opacity:1" />
      <path
         sodipodi:nodetypes="cccccccccc"
         inkscape:original-d="m 131.01644,201.67668 c 0.49618,-0.91581 0.9921,-1.83135 1.48776,-2.74663 1.06803,0.34295 2.13653,0.6864 3.20439,1.02999 0.7631,1.29655 1.52617,2.59377 2.28886,3.89105 0.45806,2.40319 0.91581,4.80633 1.37331,7.2099 -0.19049,0.4957 -0.38121,0.99157 -0.57221,1.48775 -1.71748,0.76318 -3.43302,1.52564 -5.14993,2.28886 -0.1905,-0.22919 -0.38121,-0.45803 -0.57221,-0.68666 -0.61003,-2.86101 -1.22046,-5.7987 -1.83108,-8.69765 -0.076,-1.25905 -0.15233,-2.518 -0.22889,-3.77661 z"
         inkscape:path-effect="#path-effect958"
         inkscape:connector-curvature="0"
         id="path956"
         d="m 131.30263,201.84806 c 0.2099,-1.08724 0.70582,-2.00278 1.48766,-2.28876 0.78184,-0.28598 1.85034,0.0575 2.76571,0.87747 0.91538,0.82 1.67845,2.11722 2.28883,3.96739 0.61038,1.85018 1.06812,4.25332 1.20171,5.7029 0.13359,1.44958 -0.0571,1.94545 -1.01127,2.57521 -0.95415,0.62977 -2.66969,1.39223 -3.62356,1.65931 -0.95388,0.26707 -1.14458,0.0382 -1.54126,-1.50749 -0.39668,-1.54571 -1.0148,-4.48179 -1.35811,-6.56081 -0.34332,-2.07902 -0.41962,-3.33797 -0.20971,-4.42522 z"
         style="fill:#b81b74;fill-opacity:1;stroke:#b81b74;stroke-width:0.26458332px;stroke-linecap:butt;stroke-linejoin:miter;stroke-opacity:1" />
      <path
         sodipodi:nodetypes="cccccccccccc"
         inkscape:original-d="m 131.61902,206.85123 c 0.38174,-0.80137 0.76321,-1.60247 1.14442,-2.4033 0.83918,0.22853 1.60247,0.38121 2.4033,0.57221 0.38165,0.53368 0.76322,1.06787 1.14443,1.6022 0.38178,1.29687 0.76322,2.59377 1.14443,3.89106 0.0384,0.91539 0.0766,1.83081 0.11444,2.74662 -0.14287,-0.0265 -0.28592,-0.0527 -0.42928,-0.0787 -1.21536,0.58053 -2.42744,1.15964 -3.64155,1.73985 -0.0335,-0.0407 -0.0672,-0.0812 -0.10116,-0.12138 -0.72083,-2.55445 -1.44286,-5.11192 -2.16469,-7.66748 0.12881,-0.094 0.25737,-0.18766 0.38566,-0.2811 z"
         inkscape:path-effect="#path-effect962"
         inkscape:connector-curvature="0"
         id="path960"
         d="m 131.80983,206.45052 c 0.19082,-0.40071 0.57229,-1.20181 1.18578,-1.50153 0.61348,-0.29972 1.37023,-0.11954 1.96135,0.24275 0.59113,0.36229 0.9727,0.89649 1.35418,1.81202 0.38149,0.91554 0.76293,2.21244 0.97277,3.31874 0.20983,1.1063 0.24797,2.02172 0.19559,2.46652 -0.0524,0.4448 -0.19543,0.41857 -0.87474,0.69576 -0.6793,0.27719 -1.89139,0.85629 -2.51534,1.12609 -0.62396,0.26981 -0.65769,0.22933 -1.0351,-1.06805 -0.37742,-1.29739 -1.09945,-3.85486 -1.39577,-5.17965 -0.29633,-1.32479 -0.16779,-1.41848 -0.10366,-1.46522 0.0641,-0.0467 0.0641,-0.0467 0.25494,-0.44743 z"
         style="fill:#040507;fill-opacity:1;stroke:#000000;stroke-width:0.26458332px;stroke-linecap:butt;stroke-linejoin:miter;stroke-opacity:1" />
      <path
         transform="rotate(10.093893)"
         d="m 169.00038,180.41762 a 1.0520025,3.1964691 0 0 1 -1.04317,3.19635 1.0520025,3.1964691 0 0 1 -1.06068,-3.14269 1.0520025,3.1964691 0 0 1 1.02536,-3.24912 1.0520025,3.1964691 0 0 1 1.0779,3.08814"
         sodipodi:open="true"
         sodipodi:end="6.2496052"
         sodipodi:start="0"
         sodipodi:ry="3.1964691"
         sodipodi:rx="1.0520025"
         sodipodi:cy="180.41762"
         sodipodi:cx="167.94838"
         sodipodi:type="arc"
         id="path964"
         style="opacity:1;fill:#ffffff;fill-opacity:1;stroke:#ffffff;stroke-width:1.66499996;stroke-linecap:round;stroke-linejoin:miter;stroke-miterlimit:4;stroke-dasharray:none;stroke-opacity:1" />
      <path
         d="m 135.51667,213.375 a 0.01430535,0.05722139 0 0 1 -0.0142,0.0572 0.01430535,0.05722139 0 0 1 -0.0144,-0.0563 0.01430535,0.05722139 0 0 1 0.0139,-0.0582 0.01430535,0.05722139 0 0 1 0.0147,0.0553"
         sodipodi:open="true"
         sodipodi:end="6.2496052"
         sodipodi:start="0"
         sodipodi:ry="0.057221394"
         sodipodi:rx="0.014305349"
         sodipodi:cy="213.375"
         sodipodi:cx="135.50237"
         sodipodi:type="arc"
         id="path966"
         style="opacity:1;fill:#ffffff;fill-opacity:1;stroke:#ffffff;stroke-width:1.66499996;stroke-linecap:round;stroke-linejoin:miter;stroke-miterlimit:4;stroke-dasharray:none;stroke-opacity:1" />
      <path
         sodipodi:nodetypes="ccccccccccccccccccccccccc"
         inkscape:original-d="m 127.89608,183.07436 c -1.67823,-3.66243 -3.35672,-7.3246 -5.03548,-10.98651 -5.16874,-4.92131 -10.33773,-9.84234 -15.507,-14.76312 -5.81125,-3.20466 -11.622675,-6.409 -17.434574,-9.61319 -0.343072,0.0379 -0.686105,0.076 -1.02999,0.11444 -4.710719,2.00147 -9.413406,3.99968 -14.120994,6.00012 0.339385,1.16603 0.67844,2.33209 1.017292,3.49863 0.343615,0.99163 0.686902,1.98335 1.029992,2.97552 0.572518,1.50667 1.144637,3.01325 1.71664,4.52049 0.133794,0.45755 0.267247,0.9151 0.40055,1.37331 0.649019,-0.0384 1.297283,-0.0766 1.94552,-0.11444 2.479842,0.8199 4.959455,1.64008 7.438783,2.46051 2.130546,0.95343 4.260834,1.90712 6.390851,2.86108 0.85855,0.62914 1.71691,1.2586 2.57496,1.8883 1.54516,2.46013 3.09022,4.92078 4.63493,7.38156 2.99494,3.08978 5.98944,6.17965 8.98376,9.26987 3.15698,2.54608 6.3137,5.09244 9.47014,7.63905 0.23869,-0.18146 0.47712,-0.36266 0.71527,-0.5436 -1.16324,-3.31911 -2.32674,-6.63795 -3.4905,-9.95652 -0.68634,-2.72761 -1.37305,-5.45537 -2.05998,-8.18266 0.68688,0.55284 1.37358,1.10601 2.05998,1.65942 2.97564,1.65908 5.95128,3.31858 8.92653,4.97826 4.61293,3.12883 9.22607,6.25825 13.83859,9.38769 -3.91634,-3.71118 -7.83306,-7.4222 -11.75001,-11.13292 -0.23816,-0.2387 -0.47658,-0.47712 -0.71526,-0.71529 z"
         inkscape:path-effect="#path-effect991"
         inkscape:connector-curvature="0"
         id="path989"
         d="m 127.17602,181.36243 c -0.95849,-1.95036 -2.63698,-5.61252 -6.0607,-9.90407 -3.42372,-4.29155 -8.59271,-9.21258 -14.08293,-13.27528 -5.49022,-4.06269 -11.30164,-7.26703 -14.379026,-8.85023 -3.077386,-1.58319 -3.420418,-1.54508 -5.947705,-0.52518 -2.527288,1.01991 -7.229975,3.01812 -9.41426,4.60133 -2.184285,1.58322 -1.845232,2.74928 -1.504,3.82838 0.341231,1.07909 0.68452,2.07081 1.142323,3.32024 0.457803,1.24942 1.029921,2.756 1.382822,3.73838 0.352901,0.98238 0.486354,1.43993 0.877679,1.6499 0.391325,0.20997 1.039593,0.17184 2.603572,0.56288 1.563978,0.39105 4.043592,1.21122 6.34851,2.09816 2.304918,0.88693 4.435204,1.84062 5.929449,2.63216 1.494246,0.79154 2.352604,1.421 3.554167,2.96586 1.201562,1.54486 2.746619,4.00551 5.016469,6.78083 2.26984,2.77531 5.26434,5.86518 8.34001,8.68335 3.07566,2.81816 6.23239,5.36452 7.93008,6.54697 1.6977,1.18245 1.93613,1.00124 1.47341,-0.74874 -0.46272,-1.74999 -1.62622,-5.06883 -2.55127,-8.09194 -0.92504,-3.0231 -1.61176,-5.75086 -1.61174,-6.83798 2e-5,-1.08712 0.68672,-0.53395 2.51777,0.57231 1.83104,1.10625 4.80669,2.76575 8.60076,5.16 3.79407,2.39425 8.40721,5.52367 8.75528,5.23279 0.34806,-0.29089 -3.56866,-4.00191 -5.64622,-5.97662 -2.07756,-1.97472 -2.31597,-2.21314 -3.27445,-4.1635 z"
         style="fill:#5bcefa;fill-opacity:1;stroke:none;stroke-width:0.26458332px;stroke-linecap:butt;stroke-linejoin:miter;stroke-opacity:1" />
      <path
         sodipodi:nodetypes="ccc"
         inkscape:original-d="m 132.18143,190.2821 c -0.70547,4.02431 -1.41115,8.04857 -2.1172,12.07371 0.99217,4.21535 1.98394,8.43036 2.97551,12.64592"
         inkscape:path-effect="#path-effect970"
         inkscape:connector-curvature="0"
         id="path968"
         d="m 132.18143,190.2821 c -0.70568,4.02427 -1.41136,8.04853 -1.26835,12.16883 0.14301,4.1203 1.13478,8.33531 2.12666,12.5508"
         style="fill:none;stroke:#000000;stroke-width:0.96499997;stroke-linecap:round;stroke-linejoin:miter;stroke-miterlimit:4;stroke-dasharray:none;stroke-opacity:1" />
      <path
         sodipodi:nodetypes="cccccccccccccccccccccccccccccccc"
         inkscape:original-d="m 93.385316,146.04995 c 1.600899,-1.04487 3.201534,-2.08949 4.801904,-3.13384 0.79753,-0.0161 1.594794,-0.0319 2.3918,-0.0474 5.12158,1.12916 10.24288,2.25857 15.36392,3.38826 8.41591,3.34441 16.8323,6.68939 25.24806,10.03448 4.88255,2.40042 9.81895,4.80118 14.72804,7.20217 0.16211,0.18855 0.27001,0.37738 0.40461,0.56647 1.64806,3.74395 3.29491,7.48602 4.94207,11.22968 -0.54308,-0.27849 -1.08537,-0.55617 -1.62996,-0.83464 -3.48589,-3.12119 -6.95911,-6.23054 -10.4391,-9.34545 -3.47755,-2.23836 -6.95531,-4.47643 -10.43336,-6.71425 3.73831,2.24016 7.43502,4.45581 11.15213,6.68411 -0.29136,0.71191 -0.58298,1.42409 -0.87487,2.13653 1.53784,2.07681 3.07535,4.1538 4.61262,6.23109 0.59372,1.72614 1.18714,3.45247 1.78032,5.17909 2.0505,3.50673 4.15432,7.01309 6.23109,10.52003 2.40838,2.90841 4.81638,5.81695 7.22418,8.72583 0.42452,0.2741 0.84854,0.54832 1.27276,0.82311 -0.0267,0.80942 2.7e-4,1.61821 0,2.4277 -0.28528,0.32072 -0.57056,0.6414 -0.85664,0.96295 -3.81783,0.0294 -7.62886,0.0591 -11.44369,0.089 -5.29751,-1.44853 -10.59431,-2.89652 -15.89211,-4.34446 -4.46725,-4.18989 -8.93448,-8.37926 -13.40212,-12.5685 -0.83595,-1.51084 -1.67215,-3.0214 -2.50862,-4.5317 -3.5062,-4.69353 -7.01309,-9.38736 -10.52003,-14.08065 -3.4794,-3.29111 -6.95913,-6.58202 -10.4391,-9.87264 -2.69718,-1.59176 -5.394622,-3.18325 -8.09233,-4.77447 -3.180428,-1.54089 -6.360704,-3.08132 -9.5418,-4.62175 0.226455,-0.07 0.452499,-0.13973 0.678523,-0.20925 0.336207,-0.069 0.671808,-0.13762 1.007319,-0.20603 1.411737,-0.30544 2.823187,-0.61062 4.234384,-0.91553 z"
         inkscape:path-effect="#path-effect987"
         inkscape:connector-curvature="0"
         id="path985"
         d="m 94.185785,145.52754 c 0.800469,-0.5224 2.401106,-1.56702 3.600039,-2.09713 1.198932,-0.53011 1.996196,-0.54591 4.955456,0.0109 2.95925,0.55684 8.08055,1.68625 14.849,3.92331 6.76844,2.23705 15.18483,5.58203 21.83658,8.44946 6.65174,2.86743 11.58294,5.27884 14.10953,6.57994 2.52659,1.3011 2.65236,1.47717 3.54368,3.44365 0.89132,1.96648 2.53817,5.70855 3.09029,7.44122 0.55212,1.73268 0.01,1.45499 -2.00545,-0.24486 -2.01529,-1.69984 -5.48851,-4.80919 -8.96725,-7.48581 -3.47875,-2.67663 -6.95651,-4.91469 -6.82637,-4.91352 0.13013,0.001 3.82684,2.21682 5.53975,3.68674 1.7129,1.46993 1.42127,2.1821 2.04417,3.57687 0.62289,1.39476 2.1604,3.47175 3.22589,5.37341 1.06548,1.90166 1.65891,3.62799 2.99074,6.23879 1.33182,2.61079 3.41567,6.12898 5.65826,9.33669 2.24258,3.2077 4.65058,6.11624 6.06679,7.70776 1.4162,1.59153 1.84022,1.86575 2.05243,2.4077 0.21221,0.54195 0.21221,1.35074 0.0696,1.91584 -0.14265,0.56509 -0.42793,0.88578 -2.47987,1.0614 -2.05195,0.17563 -5.86298,0.20527 -10.41919,-0.504 -4.55622,-0.70928 -9.85301,-2.15727 -14.73562,-4.97621 -4.88261,-2.81893 -9.34984,-7.0083 -12.00167,-9.85839 -2.65182,-2.85009 -3.48802,-4.36065 -5.65935,-7.46254 -2.17133,-3.10189 -5.67821,-7.79572 -9.17137,-11.78789 -3.49315,-3.99218 -6.97288,-7.28309 -10.06142,-9.72426 -3.08854,-2.44116 -5.785979,-4.03265 -8.72503,-5.59871 -2.939051,-1.56605 -6.119328,-3.10648 -7.596549,-3.91178 -1.47722,-0.8053 -1.25117,-0.87501 -0.970058,-0.94424 0.281113,-0.0692 0.61671,-0.13788 1.490334,-0.32481 0.873624,-0.18693 2.285075,-0.4921 2.990652,-0.64465 0.705577,-0.15256 0.705577,-0.1525 1.506046,-0.67491 z"
         style="fill:#ffffff;fill-opacity:1;stroke:none;stroke-width:0.26458332px;stroke-linecap:butt;stroke-linejoin:miter;stroke-opacity:1" />
      <path
         sodipodi:nodetypes="cccccccccccccccccc"
         inkscape:original-d="m 155.98553,163.33082 c -4.50116,-2.28912 -9.00257,-4.57798 -13.50426,-6.86657 -7.82016,-2.55621 -15.64024,-5.11204 -23.46077,-7.66766 -6.67995,-1.649 -13.44632,-3.319 -20.17054,-4.97826 0.315004,-0.39131 0.624025,-0.77524 0.944158,-1.17305 2.107112,0.15508 4.139282,0.30492 6.208522,0.45778 0.38174,-0.2673 0.76321,-0.53433 1.14443,-0.8011 9.10814,0.40983 18.21574,0.81991 27.32321,1.23026 0.30544,0.15232 0.61062,0.30491 0.91554,0.45777 2.97475,1.02936 5.95129,2.0597 8.92654,3.08995 2.21271,1.18225 4.42539,2.36489 6.63768,3.54773 0.4008,0.8008 0.80136,1.60194 1.20165,2.4033 -2.00249,-0.91581 -4.00523,-1.83135 -6.00825,-2.74663 -5.72225,-0.87772 -11.44401,-1.75505 -17.16642,-2.63218 5.30299,1.18235 10.6053,2.36488 15.90755,3.54772 1.86943,2.00242 3.73873,4.00524 5.6077,6.00825 1.56431,1.98341 3.12835,3.96706 4.69215,5.95102 0.26731,0.057 0.53434,0.11418 0.80111,0.17167 z"
         inkscape:path-effect="#path-effect983"
         inkscape:connector-curvature="0"
         id="path981"
         d="m 153.60145,162.15783 c -2.11724,-1.11582 -6.61865,-3.40467 -12.77955,-5.82707 -6.16089,-2.4224 -13.98098,-4.97823 -21.2312,-7.08054 -7.25023,-2.10232 -14.0166,-3.77231 -17.22118,-4.79777 -3.204585,-1.02545 -2.895568,-1.40939 -1.68194,-1.5306 1.21363,-0.12121 3.2458,0.0286 4.47132,-0.0287 1.22552,-0.0573 1.60699,-0.32436 6.35164,-0.25272 4.74466,0.0716 13.85226,0.48171 18.55864,0.76307 4.70638,0.28136 5.01156,0.43395 6.65142,1.02506 1.63986,0.59111 4.6164,1.62145 7.21035,2.7277 2.59395,1.10625 4.80663,2.28889 6.1131,3.28063 1.30647,0.99174 1.70704,1.79288 0.90602,1.73573 -0.80102,-0.0571 -2.80376,-0.97268 -6.66634,-1.86919 -3.86259,-0.89651 -9.58435,-1.77384 -9.79407,-1.62122 -0.20972,0.15261 5.09259,1.33514 8.67833,2.92774 3.58574,1.5926 5.45504,3.59542 7.17167,5.58862 1.71663,1.9932 3.28067,3.97685 4.19634,4.99735 0.91567,1.0205 1.18269,1.07772 -0.93455,-0.0381 z"
         style="fill:#f5a9b8;fill-opacity:1;stroke:none;stroke-width:0.26458332px;stroke-linecap:butt;stroke-linejoin:miter;stroke-opacity:1" />
      <path
         sodipodi:nodetypes="cccccccccccccccccccccccccccccccccccccc"
         inkscape:connector-curvature="0"
         d="m 74.820513,155.19466 c 5.21754,-3.17391 10.434779,-6.34764 15.039408,-8.47392 4.60463,-2.12627 8.59704,-3.2053 12.588939,-4.28419 m 0,0 c 10.57423,0 21.14822,0 27.8108,0.5395 6.66258,0.5395 9.41405,1.61851 12.56992,3.45269 3.15587,1.83419 6.71667,4.42386 8.49696,5.69151 1.78029,1.26766 1.78029,1.2137 -1.4121,0.34818 -3.19239,-0.86552 -9.53935,-2.53295 -12.31772,-3.23427 -2.77837,-0.70133 -1.96916,-0.43159 0.1578,0.38675 2.12697,0.81835 5.47981,2.14884 8.39293,4.03698 2.91313,1.88813 5.34092,4.31592 7.6607,7.2561 2.31978,2.94019 4.53168,6.39291 5.77251,8.84753 1.24083,2.45462 1.51057,3.91121 1.59868,4.80336 0.0881,0.89216 -0.034,1.31964 -1.43787,0.13178 -1.40385,-1.18787 -4.09904,-3.93697 -6.4188,-5.93305 -2.31976,-1.99609 -4.26193,-3.23692 -5.01724,-3.64155 -0.75532,-0.40463 -0.32374,0.027 1.32168,2.83225 1.64541,2.80529 4.5047,7.98438 6.28502,11.30224 1.78032,3.31786 2.48164,4.77445 4.23509,7.39114 1.75346,2.6167 4.55859,6.39284 6.41986,8.65873 1.86127,2.26589 2.77839,3.02116 3.29088,3.91117 0.51248,0.89001 0.62039,1.91507 0.56656,2.4277 -0.0538,0.51263 -0.16168,0.51263 -1.48544,0.62069 -1.32377,0.10806 -3.80136,0.32351 -7.31149,0.16128 -3.51013,-0.16223 -8.03498,-0.7009 -12.62084,-2.45431 -4.58585,-1.7534 -9.22521,-4.72044 -14.21162,-8.04399 -4.98641,-3.32355 -10.44298,-7.08858 -13.626,-9.54329 -3.18303,-2.45471 -4.1541,-3.64158 -4.45084,-3.56074 -0.29674,0.0808 0.0809,1.42959 0.70025,4.14882 0.61932,2.71924 1.48468,6.82968 2.1051,9.63507 0.62042,2.80539 0.99804,4.31588 1.02501,4.8824 0.027,0.56652 -0.29668,0.18893 -1.86109,-1.13273 -1.56442,-1.32166 -4.36992,-3.58764 -6.90555,-5.90747 -2.53562,-2.31983 -4.80145,-4.69355 -6.82455,-7.22917 -2.02309,-2.53562 -3.80341,-5.23308 -5.597051,-7.37575 -1.793636,-2.14268 -3.547235,-3.68372 -7.026882,-5.19428 -3.479646,-1.51055 -8.658688,-2.96716 -13.837954,-4.42383"
         inkscape:original-d="m 74.820513,155.19466 c 5.217494,-3.17399 10.434733,-6.34772 15.651699,-9.52118 3.99229,-1.07919 7.9847,-2.15822 11.976648,-3.23693 m 0,0 c 10.57423,-2.6e-4 21.14822,-2.6e-4 31.72192,0 2.75159,1.07868 5.50305,2.15769 8.25418,3.23693 3.56071,2.58915 7.12151,5.17882 10.68187,7.76863 2.7e-4,-0.0542 2.7e-4,-0.10816 0,-0.16184 -6.38816,-1.66448 -12.73166,-3.3451 -19.09789,-5.01725 0.80952,0.26949 1.61873,0.53923 2.4277,0.80924 3.45231,1.34819 6.79782,2.69717 10.19633,4.04616 2.42787,2.42734 4.85566,4.85513 7.2831,7.28309 2.21217,3.45247 4.42407,6.90519 6.63571,10.35818 0.27001,1.45639 0.53975,2.91298 0.80923,4.36986 -0.10765,0.32347 -0.21553,0.75502 -0.32369,1.13293 -2.69943,-2.75395 -5.39462,-5.50305 -8.09233,-8.25418 -1.94189,-1.24108 -3.88406,-2.48191 -5.82648,-3.72247 0.43187,0.43134 0.86345,0.86292 1.29477,1.29477 2.85956,5.17883 5.71885,10.35792 8.57787,15.53727 0.70162,1.45638 1.40294,2.91297 2.10401,4.36986 2.80582,3.77644 5.61095,7.55257 8.41602,11.32926 0.91741,0.75503 1.83453,1.5103 2.75139,2.26585 0.10816,1.02473 0.21606,2.04979 0.3237,3.07508 -0.21558,-2.6e-4 -0.32343,-2.6e-4 -0.48554,0 -2.48544,0.21589 -4.96303,0.43133 -7.44494,0.64739 -4.53196,-0.59377 -9.06315,-1.07924 -13.59512,-1.61847 -4.63957,-2.9676 -9.27894,-5.93463 -13.91881,-8.90156 -5.34075,-3.66884 -10.7895,-7.4452 -16.18465,-11.16741 -0.97082,-1.18715 -1.9419,-2.37401 -2.91324,-3.56062 0.3779,1.34842 0.75555,2.69718 1.13293,4.04616 0.8096,4.10039 1.72662,8.19996 2.58954,12.30034 0.37793,1.51038 0.75555,3.02087 1.13293,4.5317 -0.32347,-0.37795 -0.64712,-0.75554 -0.97108,-1.13292 -2.80491,-2.26599 -5.61042,-4.53197 -8.41602,-6.79756 -2.26561,-2.37404 -4.53144,-4.74776 -6.79756,-7.12125 -1.78004,-2.69769 -3.56036,-5.39515 -5.340928,-8.09232 -1.78001,-1.6187 -3.56036,-3.1293 -5.34094,-4.69355 -5.178872,-1.4569 -10.357913,-2.91351 -15.537269,-4.36986"
         inkscape:path-effect="#path-effect978"
         style="fill:none;stroke:#5bcefa;stroke-width:1.56500006;stroke-linecap:butt;stroke-linejoin:miter;stroke-miterlimit:4;stroke-dasharray:none;stroke-opacity:1"
         id="path976" />
      <path
         sodipodi:nodetypes="cccccccccccccc"
         inkscape:original-d="m 70.382695,232.66928 c 0.782523,2.69718 1.564744,5.39449 2.346775,8.09233 1.214172,1.99594 2.427964,3.99195 3.641548,5.98832 0.944428,1.88807 1.888432,3.77607 2.832314,5.66463 1.220632,1.97817 2.440891,3.95643 3.660942,5.93504 1.602542,2.67019 3.204663,5.3404 4.806598,8.01099 0.706017,0.93438 1.411727,1.86897 2.117191,2.80385 0.534355,-0.34361 1.068398,-0.68692 1.6022,-1.02998 3.202818,-2.36406 6.409062,-4.73057 9.613197,-7.09546 -1.067775,-1.01108 -2.136005,-2.02208 -3.204405,-3.03273 -4.939881,-4.99764 -9.879959,-9.99494 -14.820338,-14.99201 -3.680976,-3.52891 -7.362221,-7.05756 -11.043728,-10.58595 -0.304917,-2.7e-4 -0.610097,-2.7e-4 -0.915543,0 -0.21217,0.0801 -0.424236,0.16038 -0.636751,0.24097 z"
         inkscape:path-effect="#path-effect1007"
         inkscape:connector-curvature="0"
         id="path1005"
         d="m 70.880084,233.97769 c 0.284819,1.38886 1.067039,4.08617 2.065144,6.43311 0.998104,2.34694 2.211895,4.34295 3.290899,6.28515 1.079004,1.94221 2.023005,3.83021 3.105266,5.76359 1.082262,1.93338 2.302522,3.91164 3.713816,6.23604 1.411293,2.3244 3.013419,4.99461 4.167401,6.79711 1.153983,1.8025 1.859693,2.73709 2.479773,3.03265 0.62008,0.29556 1.154122,-0.0478 3.022428,-1.40132 1.868305,-1.35357 5.074547,-3.72009 6.142583,-5.40796 1.068036,-1.68787 -1.94e-4,-2.69887 -3.004341,-5.70302 -3.004148,-3.00414 -7.944225,-8.00145 -12.254897,-12.26443 -4.310673,-4.26299 -7.991916,-7.79164 -9.985,-9.55597 -1.993084,-1.76433 -2.298264,-1.76433 -2.55704,-1.7242 -0.258776,0.0401 -0.470851,0.1204 -0.186032,1.50925 z"
         style="fill:#5bcefa;fill-opacity:1;stroke:#5bcefa;stroke-width:0.60000002;stroke-linecap:butt;stroke-linejoin:miter;stroke-miterlimit:4;stroke-dasharray:none;stroke-opacity:1" />
      <path
         sodipodi:nodetypes="cccccccccccccccccc"
         inkscape:original-d="m 60.589515,198.62983 c 0.809497,4.69328 1.61873,9.38683 2.427698,14.08065 1.996462,6.85155 3.992479,13.70274 5.988322,20.55451 1.133219,1.45639 2.266116,2.91297 3.398777,4.36986 2.668803,2.83459 5.337207,5.66931 8.005415,8.50436 1.297286,0.6101 2.5943,1.22046 3.891052,1.83109 1.907477,2.13581 3.815025,4.27226 5.722141,6.40879 1.831361,2.36491 3.662434,4.73004 5.493251,7.09546 0.534336,0.83899 1.068395,1.67822 1.602195,2.51774 2.060249,-0.76322 4.120224,-1.52617 6.179924,-2.28886 2.32727,-1.64061 4.65427,-3.28095 6.98102,-4.92103 0.22914,-0.53434 0.45802,-1.0684 0.68665,-1.60221 -2.25047,-1.83136 -4.50116,-3.66243 -6.75213,-5.49325 -3.85251,-2.2509 -7.705559,-4.50168 -11.558726,-6.75213 -5.454957,-5.34103 -10.909948,-10.75788 -16.365319,-16.13642 -3.738201,-6.06574 -7.476664,-12.2075 -11.215393,-18.31085 -1.067854,-3.05204 -2.136,-6.10388 -3.204397,-9.15543 -0.426541,-0.23434 -0.853389,-0.46845 -1.28048,-0.70228 z"
         inkscape:path-effect="#path-effect1003"
         inkscape:connector-curvature="0"
         id="path1001"
         d="m 61.207572,201.09357 c 0.191138,2.22959 1.000371,6.92314 2.40308,12.69585 1.402709,5.7727 3.398725,12.62389 4.963266,16.77804 1.564542,4.15415 2.697437,5.61073 4.59818,7.75648 1.900743,2.14576 4.56915,4.98048 6.551957,6.70308 1.982808,1.72261 3.279821,2.33297 4.881872,3.70615 1.60205,1.37319 3.509597,3.50964 5.37883,5.76035 1.869233,2.25071 3.700301,4.61584 4.882871,6.21803 1.18257,1.60219 1.716626,2.44142 3.013833,2.47954 1.297208,0.0381 3.357179,-0.72483 5.550659,-1.92652 2.19348,-1.2017 4.52048,-2.84203 5.79834,-3.9293 1.27787,-1.08726 1.50675,-1.62132 0.49577,-2.80374 -1.01097,-1.18242 -3.26166,-3.01348 -6.31338,-5.05433 -3.05171,-2.04084 -6.904758,-4.29163 -11.549324,-8.09707 -4.644566,-3.80543 -10.118634,-9.20293 -14.706948,-14.93031 -4.588315,-5.72739 -8.343768,-11.85874 -10.747064,-16.43647 -2.403296,-4.57774 -3.471439,-7.62958 -4.218834,-9.27242 -0.747396,-1.64285 -1.174246,-1.87696 -0.983108,0.35264 z"
         style="fill:#ffffff;fill-opacity:1;stroke:none;stroke-width:0.26458332px;stroke-linecap:butt;stroke-linejoin:miter;stroke-opacity:1" />
      <path
         sodipodi:nodetypes="cccccccccccccccccccccc"
         inkscape:original-d="m 61.26438,197.57823 c 0.377907,1.834 0.755549,3.66826 1.132926,5.50278 1.18727,2.80539 2.374013,5.66437 3.560623,8.49695 2.347147,4.12701 4.693814,8.25391 7.040324,12.38125 2.724739,3.42556 5.449099,6.7973 8.173252,10.19634 3.075377,2.6972 6.150433,5.39462 9.225251,8.09233 3.452971,2.31952 6.90572,4.63933 10.358194,6.9594 2.86007,1.63916 5.72021,3.27878 8.57955,4.91837 0.90592,1.05198 1.81168,2.10436 2.71718,3.157 -2.11613,-3.15075 -4.23234,-6.30098 -6.34891,-9.45107 -3.13261,-2.83258 -6.265475,-5.66489 -9.398614,-8.49694 -1.429377,-1.07924 -2.805076,-2.15822 -4.20801,-3.23693 1.214146,-0.21607 2.427962,-0.43186 3.641547,-0.64739 3.425172,-1.052 6.851777,-2.10427 10.277267,-3.15601 -1.13256,-0.21604 -2.26559,-0.43185 -3.39878,-0.64738 -3.102365,-0.80965 -6.203863,-1.61873 -9.306184,-2.4277 -3.182906,-1.99649 -6.365701,-3.99248 -9.548948,-5.98832 -2.454462,-2.26617 -4.90908,-4.53197 -7.364017,-6.79756 -2.076776,-2.56285 -4.153797,-5.1254 -6.231092,-7.68771 -1.240544,-1.64569 -2.481382,-3.29114 -3.722471,-4.93632 -1.159606,-1.86145 -2.373483,-3.77668 -3.560622,-5.66463 -0.539204,-0.18908 -1.078713,-0.3779 -1.618466,-0.56646 z"
         inkscape:path-effect="#path-effect999"
         inkscape:connector-curvature="0"
         id="path997"
         d="m 61.723002,198.5897 c -0.08102,0.82259 0.296621,2.65685 1.07413,4.97886 0.777509,2.322 1.973868,5.17695 3.74075,8.65677 1.766881,3.47982 4.113551,7.60672 6.655767,11.37792 2.542216,3.7712 5.253415,7.15349 8.1532,10.20164 2.899785,3.04814 5.974841,5.74556 9.238758,8.25419 3.263916,2.50862 6.716664,4.82844 9.872943,6.80806 3.15629,1.97962 6.01643,3.61924 7.89901,4.96499 1.88257,1.34575 2.78834,2.39812 2.18301,1.34905 -0.60532,-1.04908 -2.72154,-4.1993 -5.3461,-7.1906 -2.62456,-2.9913 -5.757426,-5.82361 -8.033658,-7.78577 -2.276232,-1.96215 -3.661959,-3.02809 -3.756221,-3.67553 -0.09426,-0.64743 1.119555,-0.86322 3.438939,-1.49701 2.319384,-0.63379 5.74599,-1.68605 6.8924,-2.31987 1.14641,-0.63382 0.0134,-0.84964 -2.10441,-1.36222 -2.117787,-0.51258 -5.219284,-1.32167 -8.361954,-2.7244 -3.14267,-1.40273 -6.325466,-3.39872 -9.14435,-5.52974 -2.818885,-2.13102 -5.273501,-4.39683 -7.539376,-6.81107 -2.265876,-2.41423 -4.342893,-4.97679 -6.001818,-7.08079 -1.658925,-2.104 -2.899759,-3.74946 -4.103704,-5.50053 -1.203945,-1.75107 -2.41064,-3.67082 -3.273714,-4.70927 -0.863074,-1.03845 -1.402581,-1.22728 -1.483602,-0.40468 z"
         style="fill:#f5a9b8;fill-opacity:1;stroke:none;stroke-width:0.26458332px;stroke-linecap:butt;stroke-linejoin:miter;stroke-opacity:1" />
      <path
         sodipodi:nodetypes="ccccccccccccccccccccc"
         inkscape:original-d="m 60.293013,196.02008 c 0.539753,4.53144 1.079241,9.06314 1.618465,13.59511 1.456958,5.12513 3.021399,10.25002 4.531702,15.37542 1.672735,4.47764 3.345093,8.95524 5.017243,13.43326 1.888536,3.99208 3.776684,7.98417 5.664629,11.97665 3.237288,5.23292 6.474127,10.46581 9.710793,15.69911 0.75556,1.18663 1.402934,2.26559 2.104006,3.39878 0.8635,-0.64769 1.726626,-1.29504 2.589543,-1.94216 3.93718,-2.31927 7.876801,-4.63986 11.814806,-6.9594 2.5896,-1.45677 5.17935,-2.9135 7.76863,-4.36986 -0.0537,-0.4318 -0.10763,-0.75554 -0.16184,-1.13292 -1.40158,-2.04912 -2.80508,-4.10038 -4.20802,-6.15017 -1.88789,-2.10421 -3.77615,-4.20828 -5.66462,-6.31202 -2.535325,-2.0503 -5.070936,-4.20827 -7.606798,-6.31201 2.65e-4,-0.0542 2.65e-4,-0.10816 0,-0.16185 4.509743,-1.39605 9.063678,-2.8056 13.595118,-4.20801 -2.10359,-0.1621 -4.20775,-0.32396 -6.31202,-0.48554 -2.805405,-0.9175 -5.50252,-1.83452 -8.254177,-2.75139 -5.125172,-3.669 -10.250016,-7.33731 -15.375421,-11.00556 -4.261736,-5.9347 -8.523653,-11.86901 -12.785876,-17.80312 -1.348445,-1.29503 -2.697177,-2.58981 -4.046163,-3.88432 z"
         inkscape:path-effect="#path-effect995"
         inkscape:connector-curvature="0"
         id="path993"
         d="m 61.237107,198.93321 c -0.404633,1.61834 0.134855,6.15004 1.157753,10.97131 1.022898,4.82126 2.537703,9.96078 4.12922,14.76232 1.591516,4.80153 3.263874,9.27913 5.044217,13.5142 1.780343,4.23506 3.668492,8.22715 6.231112,12.83987 2.562621,4.61272 5.799461,9.84561 7.788145,13.06018 1.988684,3.21456 2.650917,4.28432 3.433372,4.527 0.782456,0.24267 1.645584,-0.40468 4.04564,-1.88785 2.400057,-1.48318 6.339675,-3.80377 9.603484,-5.69192 3.2638,-1.88815 5.85355,-3.34489 7.1174,-4.28845 1.26386,-0.94356 1.21746,-1.26838 0.48955,-2.48154 -0.7279,-1.21317 -2.1314,-3.26443 -3.7768,-5.34141 -1.6454,-2.07698 -3.53366,-4.18105 -5.73228,-6.27403 -2.198616,-2.09298 -4.760743,-4.21899 -6.028555,-5.29811 -1.267813,-1.07911 -1.267813,-1.13307 0.987084,-1.85786 2.254896,-0.72479 6.808831,-2.13434 8.022721,-2.91653 1.21389,-0.7822 -0.89027,-0.94405 -3.34245,-1.49167 -2.452185,-0.54762 -5.154694,-1.44846 -9.093165,-3.7414 -3.93847,-2.29294 -9.063315,-5.96125 -13.756928,-10.76276 -4.693613,-4.80152 -8.955527,-10.73584 -11.760842,-14.35038 -2.805315,-3.61454 -4.154045,-4.90932 -4.558678,-3.29097 z"
         style="fill:none;stroke:#5bcefa;stroke-width:1;stroke-linecap:butt;stroke-linejoin:miter;stroke-miterlimit:4;stroke-dasharray:none;stroke-opacity:1" />
      <path
         sodipodi:nodetypes="cc"
         inkscape:original-d="m 133.1756,215.71985 c 2.32535,-1.25818 4.65043,-2.51609 6.97525,-3.77374"
         inkscape:path-effect="#path-effect1015"
         inkscape:connector-curvature="0"
         id="path1013"
         d="m 133.1756,215.71985 c 2.3254,-1.25809 4.65048,-2.516 6.97525,-3.77374"
         style="fill:#6eabdc;fill-opacity:1;stroke:#6eabdc;stroke-width:1.26458323;stroke-linecap:round;stroke-linejoin:miter;stroke-miterlimit:4;stroke-dasharray:none;stroke-opacity:1" />
    </g>
  </g>
</svg>
